10 Bullets	ok	quick	http://www.freeworldgroup.com/games9/10bullets/10bullets.swf
10 Gnomes in Montaigut-le-Blanc	skip	quick	10
10 More Bullets	skip	quick	10
11 Seconds	skip	quick	10
1812 Overture	ok	quick	http://www.freeworldgroup.com/games6/1812overture/388158_1812.swf
20 Seconds to Die	skip	quick	10
360 Degree game	skip	quick	10
3 Slices	ok	quick	http://www.freeworldgroup.com/games9/3slices/3slices.swf
40 Cool Optical Illusions	ok	quick	http://www.freeworldgroup.com/games9/40coolopticalillusions/40coolopticalillusions.swf
501 darts	ok	quick	http://www.freeworldgroup.com/post/modules/pnFlashGames/games/501darts/501darts_pnF.swf?pn_gid=50&pn_uname=Guest&pn_authkey=de5bccd23eae644fcb4815f8b0739ca7&pn_autoupdate=true
5 Minutes to Kill Yourself Airport Edition	ok	quick	http://www.freeworldgroup.com/games9/5minutestokillyourselfairportedition/5minutestokillyourselfairportedition.swf
5 Mins to Kill Yourself Reloaded	ok	quick	http://www.freeworldgroup.com/games9/5minstokillyourselfreloaded/5mins.swf
5 Minutes to Kill Yourself Wedding Day 	ok	quick	http://www.freeworldgroup.com/games8/5minutestokillyourselfweddingday/5minutestokillyourselfweddingday.swf
60 Second Life	ok	quick	http://www.freeworldgroup.com/games9/60secondlife/60secondlife.swf
60 Seconds Asteroids	ok	quick	http://www.freeworldgroup.com/games9/60secondsasteroids/60secondsasteroids.swf
8 Bit Love Story	skip	quick	10
Accelerator	skip	quick	10
Accurate Boy	ok	quick	http://www.freeworldgroup.com/games9/accurateboy/accurateboy.swf
Achtung Omaha 44	ok	quick	http://www.freeworldgroup.com/games9/achtungomaha44/achtungomaha44.swf
Action Turnip	ok	quick	http://www.freeworldgroup.com/games9/actionturnip/actionturnip.swf
A Cup of Cursors	ok	quick	http://www.freeworldgroup.com/games6/cupofcursors/376869_cursorCoffee.swf
A Dance of Fire and Ice	skip	quick	10
Advils and Anvils	ok	quick	http://www.freeworldgroup.com/games6/advilsandanvils/advilsandanvils.swf
Agent Turn Right	ok	quick	http://www.freeworldgroup.com/games9/agentturnright/agentturnright.swf
Age of Wonder: Scrolls	skip	quick	10
Air Transporter	ok	quick	http://www.freeworldgroup.com/games9/airtransporter/airtransporter.swf
Aldebaran	skip	quick	10
Alien Bottle Buccaneer	ok	quick	http://www.freeworldgroup.com/games9/alienbottlebuccaneer/Alien-Bottle-Buccaneer_secure.swf
Alphabet Hunter	ok	quick	http://www.freeworldgroup.com/games6/alphabet-hunter/alphabet-hunter.swf
Amberial Axis	ok	quick	http://www.freeworldgroup.com/games8/amberialaxis/amberialaxis.swf
Amoeba	ok	quick	http://www.freeworldgroup.com/games2/amoeba/Amoeba_f8.swf
Anaconda	skip	quick	10
Anger Management	ok	quick	http://www.freeworldgroup.com/games8/angermanagement/anger_management_land.swf
Angry Animals 2	ok	quick	http://www.freeworldgroup.com/games9/angryanimals2/angryanimals.swf
Angry Faic	ok	quick	http://www.freeworldgroup.com/games6/angryfaic2/angryfaic.swf
Angry Fish	skip	quick	10
Animal Hunter	ok	quick	http://www.freeworldgroup.com/games5/animalhunter/animalhunter.swf
Animals in the City	ok	quick	http://www8.agame.com/games/flash/a/animals_in_the_city/animals_in_the_city_gamesgames_com.swf
Anime Clicker 2	skip	quick	10
Ant City	ok	quick	http://www.freeworldgroup.com/games6/antcity/antcity.swf
Ant Move	ok	quick	http://www.freeworldgroup.com/games6/antmove/antmove.swf
An Ordinary Day	skip	quick	10
Apple Cannon	ok	quick	http://www.freeworldgroup.com/games9/applecannon/applecannon.swf
Aquabots	ok	quick	http://www.freeworldgroup.com/games8/aquabots/aquabots.swf
Arcaneoid	ok	quick	http://www.freeworldgroup.com/games8/arcaneoid/arcaneoid.swf
Arena Rush	skip	quick	10
Armchair Games	ok	quick	http://www.freeworldgroup.com/games2/armchair/startpage.swf
Artie's Dreams	skip	quick	10
A Short History of the World	skip	quick	10
A Sudden Meeting	ok	quick	http://www.freeworldgroup.com/games9/asuddenmeeting/asuddenmeeting.swf
Atakachik	ok	quick	http://www.freeworldgroup.com/games8/atakachik/atakachik.swf
Atomic	ok	quick	http://www.freeworldgroup.com/games9/atomic/atomic.swf
Atomic Sea	skip	quick	10
Atomz	ok	quick	http://www.freeworldgroup.com/games6/atomz/atomz.swf
Attack of the Killer Dolls	ok	quick	http://www.freeworldgroup.com/games3/killerdolls/killer-dolls-game.swf
Auto Smash	skip	quick	10
Avalanche	ok	quick	http://www.freeworldgroup.com/games6/avalanche/avalanche.swf
Avoid 1	ok	quick	http://www.freeworldgroup.com/games6/avoid/avoid.swf
Avoid	skip	quick	10
Avoidster	ok	quick	http://www.freeworldgroup.com/games8/avoidster/avoidster.swf
Avril	ok	quick	http://www.freeworldgroup.com/games8/avril/avril.swf
A Waffles Fate	skip	quick	10
Axon	ok	quick	http://www.freeworldgroup.com/games9/axon/axon.swf
Back to Alien Party	ok	quick	http://www.freeworldgroup.com/games9/backtoalienparty/backtoalienparty.swf
Bacteria Simulator	ok	quick	http://www.freeworldgroup.com/games9/bacteriasimulator/bacteria.swf
Bacteria Simulator 2	ok	quick	http://www.freeworldgroup.com/games9/bacteriasimulator2/bacteriasimulator2.swf
Bad Pixel	ok	quick	http://www.freeworldgroup.com/games8/badpixel/badpixel.swf
Balance	ok	quick	http://www.freeworldgroup.com/games2/balance/game2.swf
Balance 2	ok	quick	http://www.freeworldgroup.com/games8/balance2/balance2.swf
Balance Balls	ok	quick	http://www.freeworldgroup.com/games6/balance/balanceballs.swf
Balance Balls 2	ok	quick	http://www.freeworldgroup.com/games6/balanceball2/balanceball2[1].swf
Ball Drop One	ok	quick	http://www.freeworldgroup.com/games8/balldropone/balldropone.swf
Ballies	ok	quick	http://www.freeworldgroup.com/games8/ballies/ballies.swf
Balloon Pets	ok	quick	http://www.freeworldgroup.com/games9/balloonpets/balloonpets1.swf
Balloons vs Zombies 2	ok	quick	http://www.freeworldgroup.com/games9/balloonsvszombies2/balloonsvszombies.swf
Balloons vs Zombies 3	skip	quick	10
Ball Reflexion	ok	quick	http://www.freeworldgroup.com/games8/ballreflexion/ballreflexion.swf
Balls 2D	ok	quick	http://www8.agame.com/mirror/flash/b/Balls2D/balls_2d.swf
Banana Run	skip	quick	10
Barb jump	ok	quick	http://www.freeworldgroup.com/games/barb/game.swf
Barcode Bedlam	ok	quick	http://www.freeworldgroup.com/games6/barcodebedlam/Barcode%20Bedlam.swf
Bartender	ok	quick	http://www.freeworldgroup.com/games6/bartender/bartender.swf
Battle City	ok	quick	http://www.freeworldgroup.com/games6/battlecity/battlecity.swf
Basejumper	ok	quick	http://www.freeworldgroup.com/games9/basejumper/basejumper.swf
Base Jumping	ok	quick	http://www.freeworldgroup.com/games4/basejump/basejumping_freeworldgroup.swf
Bashing Pumpkins	fail	quick	7
Battle Over Berlin	ok	quick	http://www.freeworldgroup.com/games6/battleoverberlin/BattleOverBerlin.swf
Bezerk Ball 2	ok	quick	http://www.freeworldgroup.com/games9/bezerkball2/bezerkball2.swf
Bazongaquake	ok	quick	http://www.freeworldgroup.com/games9/bazongaquake/bazonga_quake.swf
Bazooka Trooper	skip	quick	10
Bazookie - A Silent Affair	ok	quick	http://www.freeworldgroup.com/games9/bazooki/bazooki.swf
Bear Attack	ok	quick	http://www.freeworldgroup.com/games9/bearattack/bearattack.swf
Bear Grills	ok	quick	http://www.freeworldgroup.com/games9/beargrills/beargrills.swf
Beatbot	ok	quick	http://www.freeworldgroup.com/games9/beatbot/beatbot1.swf
Beat Me Up	ok	quick	http://www.addictinggames.com/newGames/action-games/beatmeup/beatmeup.swf
Bee Boxing	ok	quick	http://www.freeworldgroup.com/games4/beeboxing/beeboxing_freeworldgroup.swf
Bee Commando	ok	quick	http://www.freeworldgroup.com/games5/beecomando/340725_beecommando.swf
Beer Pushing	skip	quick	10
BeJumper	ok	quick	http://www.freeworldgroup.com/games9/bejumper/bejumper.swf
Between the Lines	ok	quick	http://www.freeworldgroup.com/games9/betweenthelines/betweenthelines.swf
Be Unique	ok	quick	http://www.freeworldgroup.com/games6/beunique/beunique.swf
Big Blocks Battle	ok	quick	http://www.addictinggames.com/newGames/puzzle-games/bigblocksbattle/bigblocksbattle.swf
Big Cheese Roll	skip	quick	10
Big Evil Robots	ok	quick	http://www.freeworldgroup.com/games9/bigevilrobots/bigevilrobots.swf
Bighouse Beatdown	fail	quick	8
Billy Bob's Bash	ok	quick	http://www.freeworldgroup.com/games9/billybobbash/BillyBobBash.swf
Billy's Hill	ok	quick	http://www.freeworldgroup.com/games9/billyshill/billyshill.swf
Billy the Pilot	ok	quick	http://www.freeworldgroup.com/games9/billythepilot/billythepilot.swf
Binga 2	ok	quick	http://www.freeworldgroup.com/games9/binga/binga2.swf
Bird Smasher	ok	quick	http://www.freeworldgroup.com/games6/birdsmasher/birdsmasher.swf
Birdy Rush	skip	quick	10
Black and White Walkers	skip	quick	10
Black Bit Ninja 2	skip	quick	10
Blacksmith Lab	skip	quick	10
Blast RPG	skip	quick	10
Blinkwang	skip	quick	10
Blips	skip	quick	10
Blob Thrower	skip	quick	10
Block Bash	ok	quick	http://www.freeworldgroup.com/games6/blockbash/blockbash.swf
Blockade	ok	quick	http://www.freeworldgroup.com/games9/blockade/blockade.swf
Blocker	skip	quick	10
Blockles	ok	quick	http://flashcdn.iminlikewithyou.com/embedder.swf?key=33b4d92016180169b878bf6383cd2a5085e0b2154741c99c1d98e32864ea5bae18daa08366adf14751189de954be6269023c1e
Bloodungeon	skip	quick	10
Blood Run	ok	quick	http://www.freeworldgroup.com/games8/bloodrun/bloodrun.swf
Bloons	ok	quick	http://www.freeworldgroup.com/games6/bloons/370620_bloons.swf
Bloons Insanity	ok	quick	http://www.freeworldgroup.com/games8/bloons-insanity/bloonsinsanity.swf
Bloons Player Pack 3	ok	quick	http://www.freeworldgroup.com/games6/bloonsplayerpack3/bloonplayerpack3.swf
Bloons Player Pack 5	ok	quick	http://www.freeworldgroup.com/games8/bloons-player-pack-5/bloonspp5.swf
Bloons Xmas	ok	quick	http://www.freeworldgroup.com/games8/bloonsxmas/bloonsxmas.swf
Bloopers 2	ok	quick	http://www.freeworldgroup.com/games9/bloopers2/bloopers2.swf
Blosics	ok	quick	http://www.freeworldgroup.com/games8/blosics/blosics.swf
Blosics 2	ok	quick	http://www.freeworldgroup.com/games8/blosics2/blosics2.swf
Blow Man	skip	quick	10
Blow Things Up	ok	quick	http://www.freeworldgroup.com/games9/blowthingsup/blowthingsup.swf
Blowup 2	ok	quick	http://www.freeworldgroup.com/games9/blowup2/blowup2.swf
BloxOn	skip	quick	10
Blue Collar Astronaut	skip	quick	10
Bobby Da Arrow	skip	quick	10
Bob's Balloons	ok	quick	http://www.freeworldgroup.com/games9/bobsballoons/bobsballoons.swf
Boite	ok	quick	http://www.freeworldgroup.com/games8/boite/boite.swf
Bomb bandits	fail	quick	1
Bomb Besieger	skip	quick	10
Bomber Chomp	ok	quick	http://www.freeworldgroup.com/games9/bomberchomp/bomberchomp.swf
Bomb Runner	ok	quick	http://www.freeworldgroup.com/games9/bombrunner/bombrunner.swf
Bond Breaker 2	skip	quick	10
Boom-It	ok	quick	http://www.freeworldgroup.com/games8/boomit/boomit.swf
Border Blast	ok	quick	http://www.freeworldgroup.com/games6/borderblast/borderblast.swf
Bottle Flip Challenge	skip	quick	10
Bottle on Head	ok	quick	http://www.freeworldgroup.com/games9/bottleonhead/bottleonhead.swf
Bounce	ok	quick	http://www.freeworldgroup.com/games9/bounce/bounce.swf
Bounce Coil	ok	quick	http://www.freeworldgroup.com/games6/bouncecoil/bouncecoil.swf
Bouncing Balls	skip	quick	10
Bouncy Draw	ok	quick	http://www.freeworldgroup.com/games8/bouncydraw/jump.swf
Bounzy	ok	quick	http://www.freeworldgroup.com/games9/bounzy/bounzy.swf
Bounzy 2	ok	quick	http://www.freeworldgroup.com/games9/bounzy2/bounzy2.swf
Bounzy Christmas	ok	quick	http://www.freeworldgroup.com/games9/bounzychristmas/BounzyChristmasFWG.swf
Bowlees	ok	quick	http://www.freeworldgroup.com/games9/bowlees/bowlees.swf
Bow Man 2	fail	quick	6
Box Dodge Fury	ok	quick	http://www.freeworldgroup.com/games8/boxdodgefury/boxdodgefury.swf
Brave Bird	skip	quick	10
Brave Kings	ok	quick	http://www.freeworldgroup.com/games9/bravekings/bravekings.swf
Brave Kings Level Pack	ok	quick	http://www.freeworldgroup.com/games9/bravekingslevelpack/bravekingslevelpack.swf
Brick Yard 2	ok	quick	http://www.freeworldgroup.com/games8/brickyard2/brickYard2.swf
Bridge Fly	skip	quick	10
Bridge, Please	skip	quick	10
Bround	skip	quick	10
Brutality Game	skip	quick	10
Bubbleboy	skip	quick	10
Bubble Burst	ok	quick	http://www.freeworldgroup.com/games4/bubbleburst/mf_bubbleburst_fwg.swf
Bubble Charms	skip	quick	10
Bubble Hamsters	skip	quick	10
Bubble Reaction	ok	quick	http://www.freeworldgroup.com/games8/bubblereaction/Bubble-Reaction-Final.swf
Bubbles 2	ok	quick	http://www.freeworldgroup.com/games6/bubbles2/bubbles.swf
Bubbles Extreme	ok	quick	http://www.freeworldgroup.com/games9/bubblesxtreme/bubbles-extreme.swf
Bucket Ball	ok	quick	http://www.freeworldgroup.com/games8/bucketball/bucketball.swf
Build a Robot 3	ok	quick	http://www.freeworldgroup.com/games8/buildarobot3/buildarobot3.swf
Bubble Sky	ok	quick	http://www.freeworldgroup.com/games9/bubblesky/bubblesky.swf
Bug on a wire	fail	quick	1
Bug patrol	ok	quick	http://www.freeworldgroup.com/games3/bug/bugpatrol.swf
Bulldozer Snake	ok	quick	http://www.freeworldgroup.com/games9/bulldozersnake/BulldozerSnake.swf
BulletLab	ok	quick	http://www.freeworldgroup.com/games8/bulletlab/BulletLAB.swf
Bullet Maze	ok	quick	http://www.freeworldgroup.com/games9/bulletmaze/bulletmaze.swf
Bunny Bunny Boom	ok	quick	http://www.freeworldgroup.com/games9/bunnybunnyboom/bunnybunnyboom.swf
Burn Stuff and Die	ok	quick	http://www.freeworldgroup.com/games8/burnstuffanddie/burnstuffanddie.swf
Burrito Bison	ok	quick	http://www.freeworldgroup.com/games9/burritobison/burritobison.swf
Button Hunt	ok	quick	http://www.freeworldgroup.com/games6/button-hunt/button.swf
Button Hunt 3	ok	quick	http://www.freeworldgroup.com/games8/buttonhunt3/buttonhunt3.swf
Button Masher Idle	ok	quick	http://assets.kongregate.com/gamez/0017/7699/live/FINAL.swf
Button X20	ok	quick	http://www.freeworldgroup.com/games9/buttonx20/buttonx20.swf
Caesar's Day Off	ok	quick	http://www.freeworldgroup.com/games9/caesarsdayoff/caesarsdayoff.swf
Cambirela Adventure	skip	quick	10
Candy Ride	skip	quick	10
Cannibal Control	ok	quick	http://www.freeworldgroup.com/games6/cannibal/cannibalcontrol800x660.swf
Cannon Basketball	ok	quick	http://www.freeworldgroup.com/games9/cannonbasketball/cannonbasketball.swf
Cannon blast	fail	quick	1
Cannon Experiment	ok	quick	http://www.freeworldgroup.com/games9/cannonexperiment/cannonexperiment.swf
Canoniac Launcher	ok	quick	http://www.freeworldgroup.com/games9/canoniaclauncher/canoniaclauncher.swf
Canoniac Launcher 2	ok	quick	http://www.freeworldgroup.com/games9/canoniaclauncher2/canoniac-launcher-2.swf
Can Your Pet	ok	quick	http://www.freeworldgroup.com/games8/canyourpet/canyourpet.swf
Cap n Zappy	ok	quick	http://www.freeworldgroup.com/games5/capnzappy/capnzappygame.swf
Caravan Toss	ok	quick	http://www.freeworldgroup.com/games6/caravantoss/caravan_toss_ugoplayer.swf
Carbon Auto Theft	ok	quick	http://www.freeworldgroup.com/games6/carbonautotheft/carbonautotheft.swf
Car Crossing	skip	quick	10
Cardiac Snowdrift	ok	quick	http://www.freeworldgroup.com/games9/cardiacsnowdrift/Cardiac_Snowdrift.swf
Cardinal	skip	quick	10
Career Test	ok	quick	http://www.freeworldgroup.com/games6/careertest/366218_careertest.swf
Castle Kaboom	skip	quick	10
Catapon	skip	quick	10
Cat Around Europe	ok	quick	http://www.freeworldgroup.com/games9/cat-around-v2/cat-around-europe-noads-v2.swf
Cat Astronauts Extra	ok	quick	
Catastrophic Construction	ok	quick	http://www.freeworldgroup.com/games8/catastrophicconstruction/catastrophicconstruction.swf
Catch Watermelon	ok	quick	http://www.freeworldgroup.com/games8/catchwatermelon/catchwatermelon.swf
Cat Clicker	skip	quick	10
Cat Fling	ok	quick	http://www.freeworldgroup.com/games6/catfling/358109_fling.swf
Cattlepult	ok	quick	http://www.freeworldgroup.com/games6/cattlepult/cattlepult.swf
Cat Woman Dressup	ok	quick	http://www.freeworldgroup.com/games8/catwomandressup/cat.swf
Causality 2	ok	quick	http://www.freeworldgroup.com/games8/causality2/Causality21.swf
Caveman Hunt	skip	quick	10
Cave racer	fail	quick	1
Chain of Fire	ok	quick	http://www.freeworldgroup.com/games8/chainoffire/ChainOfFire.swf
Chain Reaction Shooter	skip	quick	10
Chair-iots of flyers	fail	quick	1
Charlie Sheen Winning	ok	quick	http://www.freeworldgroup.com/games9/charliesheenwinning/charliesheenwinning.swf
A Sudden Meeting	ok	quick	http://www.freeworldgroup.com/games9/asuddenmeeting/asuddenmeeting.swf
Chickaboom	ok	quick	http://www.freeworldgroup.com/games9/chickaboom/chickaboom.swf
Chicken chuck	ok	quick	http://www.freeworldgroup.com/games2/chicken/257197_shoot.swf
Chicken fling	fail	quick	1
Chimney Challenge	ok	quick	http://www.freeworldgroup.com/games6/chimneychallenge/chimneychallenge.swf
Choirboy	ok	quick	http://www.freeworldgroup.com/games/choir/game2.swf
Chomper	ok	quick	http://www.freeworldgroup.com/games9/chomper/chomper.swf
Chomp the Candy	skip	quick	10
Choose Your 2012	ok	quick	http://www.freeworldgroup.com/games8/chooseyour2012/chooseyour2012.swf
Choppa Poppa	ok	quick	http://www.freeworldgroup.com/games6/choppapoppa/420052_Protected_poppa_29[1].swf
Christmas Runner	ok	quick	http://www.freeworldgroup.com/games9/christmasrunner/christmasrunner.swf
Chuck the Sheep	ok	quick	http://www.freeworldgroup.com/games9/chuckthesheep/chuckthesheep.swf
Chunkadelic	ok	quick	http://www.freeworldgroup.com/games9/chunkadelic/chunkadelic.swf
Circular Blot 2	ok	quick	http://www.freeworldgroup.com/games8/circularblot2/thecircularblot2.swf
City Smasher	ok	quick	http://www.freeworldgroup.com/games6/citysmasher/citysmasher.swf
Clickfast	ok	quick	http://www.freeworldgroup.com/games8/clickfast/clickfast.swf
Clicking Bad	skip	quick	10
Clickplay	ok	quick	http://www.freeworldgroup.com/games8/clickplay/clickplay.swf
ClickPlay 3	ok	quick	http://www.freeworldgroup.com/games9/clickplay3/clickplay3.swf
Clickplay 4	skip	quick	10
Clickplay Rainbow	ok	quick	http://www.freeworldgroup.com/games9/clickplayrainbow/clickplayrainbow.swf
Click the Frog	ok	quick	http://www.freeworldgroup.com/games9/clickthefrog/clickthefrog.swf
Climb or Drown	ok	quick	http://www.freeworldgroup.com/games8/climbordown/climbordown.swf
Clinic Escape	ok	quick	http://www.addictinggames.com/D78AQSAKQLQWI9/5536.swf
Clixsposing	ok	quick	http://www.freeworldgroup.com/games2/click/276780_clix_samus.swf
Clock Shooter	skip	quick	10
Cloud Jumper	ok	quick	http://www.freeworldgroup.com/games6/cloudjumper/cloud.swf
Cloud Soldier	ok	quick	http://www.freeworldgroup.com/games6/cloudsoldier/cloudsoldier.swf
Cloudventure	skip	quick	10
Clowning Around	ok	quick	http://www.freeworldgroup.com/games5/clowning-around/clowning-around.dcr
Code Fred Survival Mode	fail	quick	0
Coinhead	skip	quick	10
Color Balls	skip	quick	10
Coloring Book	skip	quick	10
Color Instinct	skip	quick	10
Color Shape	skip	quick	10
Color Tease	skip	quick	10
Color Traffic	ok	quick	http://www.freeworldgroup.com/games9/colortraffic/colortraffic_fixed_ie_bug.swf
Colorus	skip	quick	10
ColorValley	skip	quick	10
Concierge Hero	skip	quick	10
Confused Travolta Clicker Extreme	skip	quick	10
Conjugate	skip	quick	10
Contrast	ok	quick	http://www.freeworldgroup.com/games8/contrast/Contrast.swf
Contrast Cannon	ok	quick	http://www.freeworldgroup.com/games8/contrastcannon/contrastcannon.swf
Cookie Clicker	skip	quick	10
Cookieland	ok	quick	http://www8.agame.com/mirror/flash/c/cookieland/CookieLand.swf
Cosmic Clicks	skip	quick	10
Cosmic Rush	ok	quick	http://www.freeworldgroup.com/games8/cosmicrush/cosmicrush.swf
Cowaboom	ok	quick	http://www.freeworldgroup.com/games9/cowaboom/cowaboom.swf
Cowaboom Xmas	skip	quick	10
Cowboy School	ok	quick	http://www.freeworldgroup.com/games6/cowboyschool/cowboyschool.swf
Cow fly	fail	quick	6
Cow Tippin	ok	quick	http://www.freeworldgroup.com/games6/cowtippin/CowTippin.swf
Crash It Smash It	skip	quick	10
Crash Test Dummy	ok	quick	http://www.freeworldgroup.com/games6/crashtestdummy/testdummy.swf
Crate Escape	ok	quick	http://www.freeworldgroup.com/games8/crateescape/crateescape.swf
Crazy Box	skip	quick	10
Crazy Nails	ok	quick	http://www.freeworldgroup.com/games8/crazynails/crazynails.swf
Crazy Orcs Racing	ok	quick	http://www.freeworldgroup.com/games8/crazyorcsracing/crazyorcsracing.swf
Crazy Penguin Catapult	ok	quick	http://www.freeworldgroup.com/games9/crazypenguincatapult/crazypenguincatapult.swf
Crazy Shuttle	ok	quick	http://www.freeworldgroup.com/games6/crazyshuttle/365586_shuttle_game.swf
Crazy Tracker	ok	quick	http://www.freeworldgroup.com/games8/crazytracker/Crazytracker.swf
CrazyWheel	skip	quick	10
Crimson Momentum	ok	quick	http://www.freeworldgroup.com/games8/crimsonmomentum/crimsonmomenetum.swf
Croc Alley	ok	quick	http://www.freeworldgroup.com/games6/crocalley/crock_04.swf
Crumbs	ok	quick	http://www.freeworldgroup.com/games6/crumbs/crumbs.swf
Crush the Castle Players Pack	skip	quick	10
Crush the Tower	skip	quick	10
Crystal Freak	ok	quick	http://www.freeworldgroup.com/games9/crystalfreak/crystal-freak_secure.swf
Cubefield	ok	quick	http://www.freeworldgroup.com/games3/cubefield/cubefield.swf
Cube Ninja	skip	quick	10
Cubes	ok	quick	http://www.freeworldgroup.com/post/modules/pnFlashGames/games/pncubes.swf?pn_gid=10&pn_uname=Guest&pn_authkey=2b6298c77e45a56014353b5da71219d1&pn_license=464fbf3c7276fc19b96192f43b9635f8&pn_domain=freeworldgroup.com&pn_checksum=1f6b5947f7f7a868e9b380c5002f68b3&pn_autoupdate=true
Cube Throw	ok	quick	http://www.freeworldgroup.com/games6/cubethrow/cubethrow.swf
Cubi Kill	ok	quick	http://www.freeworldgroup.com/games8/cubikill/CubiKill.swf
Cubix Collect	ok	quick	http://www.freeworldgroup.com/games8/cubixcollect/cubixcollect.swf
Cubiz	ok	quick	http://www.freeworldgroup.com/games6/cubiz/Cubiz[1].swf
Cursor 10 Session 2	ok	quick	http://www.freeworldgroup.com/games8/cursor10-2/cursor2.swf
Cursor Chaos	ok	quick	http://www.freeworldgroup.com/games8/cursorchaos/cursorchaos.swf
Cyber Chaser	skip	quick	10
Cyber Rush	skip	quick	10
Cybersprint	ok	quick	http://www.freeworldgroup.com/games9/cybersprint/cybersprint.swf
Cyber Spy	ok	quick	http://www.freeworldgroup.com/games9/cyberspy/cyber-spy.swf
DanceStar Party Time	ok	quick	http://www.freeworldgroup.com/games9/dancepartytime/Dancestar_Party.swf
Dark Run	ok	quick	http://www.freeworldgroup.com/games9/darkrun/darkrun.swf
Dash Man	skip	quick	10
Dataworm	ok	quick	http://www.freeworldgroup.com/games8/dataworm/dataworm.swf
Deadly Dash	ok	quick	http://www.freeworldgroup.com/games8/deadlydash/deadlydash.swf
Deadly New Zealand	skip	quick	10
Death Dice  Overdose	ok	quick	http://www.freeworldgroup.com/games8/deathdiceoverdose/deathdiceoverdose.swf
Death Worm	ok	quick	http://www.freeworldgroup.com/games6/deathworm/414147_Deathworm[1].swf
Deep Sea Diver	ok	quick	http://www.freeworldgroup.com/games8/deepseadiver/DeepSeaDiver.swf
Deep Trip 2	ok	quick	http://www.freeworldgroup.com/games9/deeptrip2/deeptrip2.swf
Defend Your Keg	ok	quick	http://www.freeworldgroup.com/games5/defendyourkeg/defendyourkeg.swf
Demo Man	ok	quick	http://www.freeworldgroup.com/games6/demoman/demoman.swf
Destroy the Wall	ok	quick	http://www.freeworldgroup.com/games8/destroythewall2/destroythewall2.swf
Destroy the World	ok	quick	http://www.freeworldgroup.com/games4/destroytheworld/destroytheworld.swf
Diggy	skip	quick	10
Dino Blitz	skip	quick	10
Dino Run: Enter Planet D	skip	quick	10
Dinorun Marathon	ok	quick	http://www.freeworldgroup.com/games9/dinorunmarathon/dinorunmarathon.swf
Disaster Will Strike 3	skip	quick	10
Disco Balls	ok	quick	http://www.freeworldgroup.com/games6/discoballs/discoball[1].swf
Disco Cannon	ok	quick	http://www.freeworldgroup.com/games9/discocannon/disco-cannon-fwg.swf
Distopix	ok	quick	http://www.freeworldgroup.com/games8/distopix/distopix.swf
Docking the Game	skip	quick	10
Dodge Fishy	ok	quick	http://www.freeworldgroup.com/games6/dodge-fishy/dodgefishy.swf
Doeo	ok	quick	http://www.freeworldgroup.com/games6/doeo/doeo.swf
Dome Defence	ok	quick	http://www.freeworldgroup.com/games9/domedefence/domedefencesl.swf
Domino Frenzy 1.5	ok	quick	http://www.freeworldgroup.com/games6/domino-frenzy/new_dominoes.swf
Don't Cut Yourself	skip	quick	10
Dont Mess With Putin	ok	quick	http://www.freeworldgroup.com/games9/dontmesswithputin/dontmesswithputin.swf
Doodle Dino Bowl	ok	quick	http://www.freeworldgroup.com/games9/doodledinobowl/doodledinobowl.swf
Do or Die	skip	quick	10
Dota	skip	quick	10
Dot Hunter	skip	quick	10
Dot Snap	skip	quick	10
Dots Revamped	skip	quick	10
Double Bros	ok	quick	http://www.freeworldgroup.com/games9/doublebros/doublebros.swf
Double Wires	ok	quick	http://www.freeworldgroup.com/games6/doublewires/doublewires.swf
Douche Monkey Astronaut	ok	quick	http://www.freeworldgroup.com/games6/douchemonkey/378618_douchemonkeyFinal.swf
Dragbox	ok	quick	http://www.freeworldgroup.com/games8/dragbox/dragbox.swf
Draw 4 Play 2	ok	quick	http://www.addictinggames.com/newGames/strategy-games/draw4play2/draw4play2.swf
DrawIt	ok	quick	http://www.freeworldgroup.com/games6/drawit/DrawIT_Full.swf
Dress-up Games	ignored	quick	11
Drop	ok	quick	http://www.freeworldgroup.com/games9/gameindex/.../drop/drop.swf
Drop Dead	ok	quick	http://www.freeworldgroup.com/games8/dropdead/dropdead.swf
Drop Dead 3	ok	quick	http://www.freeworldgroup.com/games9/dropdead3/dropdead3.swf
Dropit	ok	quick	http://www.freeworldgroup.com/games9/dropit/Dropit.swf
DropMe	skip	quick	10
Droppin Beats	ok	quick	http://www.freeworldgroup.com/games8/droppinbeats/droppinbeats.swf
Dropping Beats 2	ok	quick	http://www.freeworldgroup.com/games8/droppingbeats2/droppingbeats.swf
Dr Teeth	skip	quick	10
Duck Hunt 2	ok	quick	http://www.freeworldgroup.com/g/stormycastle/stormy-castle.swf
Duke Dashington	skip	quick	10
Dummy Never Fails	ok	quick	http://www.freeworldgroup.com/games8/dummyneverfalls/dummyneverfalls.swf
Dummy Never Fails Community	ok	quick	http://www.freeworldgroup.com/games9/dummyneverfallscommunity/dummy-community.swf
Dungeon Blocks	skip	quick	10
Dupligon	ok	quick	http://www.freeworldgroup.com/games6/dupligon/dupligon.swf
Dwarf on a Wharf	ok	quick	http://www.freeworldgroup.com/games5/dwarf_on_a_warf_agame/dwarf_on_a_warf_agame.swf
Eastward Quest	skip	quick	10
EenieBalance	ok	quick	http://www.freeworldgroup.com/games9/eeniebalance/eeniebalance.swf?aid=725153
Easter Egg Hop	ok	quick	http://www.freeworldgroup.com/games4/easteregg/easteregghop.swf
Easter Rampage	ok	quick	http://www.freeworldgroup.com/games6/easterrampage/easter.swf
Economist	ok	quick	http://www.freeworldgroup.com/games8/Economist/Economist.swf
Eeniebounce	ok	quick	http://www.freeworldgroup.com/games8/eeniebounce/eeniebounce.swf?aid=725153
Egg Run 2	ok	quick	http://www.freeworldgroup.com/games5/eggrun/eggrun.swf
Eggsplosive	ok	quick	http://www.freeworldgroup.com/games9/eggsplosive/eggsplosive.swf
Election Ejection 2012	ok	quick	http://www.freeworldgroup.com/games9/electionejection2012/electionejection2012.swf
Elevator Fart	ok	quick	http://www.freeworldgroup.com/games8/elevatorfart/elevatorfart.swf
Elevatorz	ok	quick	http://www.freeworldgroup.com/games6/elevatorz/elevatorz.swf
ElfYourself	fail	quick	0
Enlarge Your Slip	ok	quick	http://www.freeworldgroup.com/games8/enlargeyourslip/enlargeyourslip.swf
Epic NInja	ok	quick	http://www.freeworldgroup.com/games9/epicninja/Epic_Ninja.swf
Epic Rail	ok	quick	http://i.notdoppler.com/files/epicrail.swf
Equanimity	ok	quick	http://www.freeworldgroup.com/games8/equanimity/equanimity.swf
Eruption	ok	quick	http://www.freeworldgroup.com/games9/eruption/eruption.swf
Escape	skip	quick	10
Escape the Red Giant	ok	quick	http://www.freeworldgroup.com/games8/escapetheredgiant/escape-the-red-giant.swf
Escapin Bacon	ok	quick	http://www.addictinggames.com/newGames/funny-games/escapinbacon/escapinbacon.swf
ET Smash	ok	quick	http://www.freeworldgroup.com/games8/etsmash/etsmash.swf
EvacPod	ok	quick	http://www.freeworldgroup.com/games8/evacpod/evacpod.swf
Evasion	ok	quick	http://www.freeworldgroup.com/games9/evasion/evasion.swf
Evolvron	fail	quick	1
Exploding Cows	ok	quick	http://www.freeworldgroup.com/games8/explodingcows/explodingcows.swf
Extreme Particle Suite	ok	quick	http://www.freeworldgroup.com/games6/extremeparticlesuite/extreme.swf
Extreme Telepath RPG	ok	quick	http://www.freeworldgroup.com/games8/extremetelepathrpg/extreme.swf
Fade	ok	quick	http://www.freeworldgroup.com/games9/fadegame/fade.swf
Fall for your Life	ok	quick	http://www.freeworldgroup.com/games8/fallforyourlife/fallforyourlife.swf
Fall Jump Roll	skip	quick	10
Farm Smash	skip	quick	10
Fast One Pyramid	ok	quick	http://www.freeworldgroup.com/games8/fastonepyramid/fastonepyramid.swf
Fatal Death Academy	skip	quick	10
Fat Moon Cannon	ok	quick	http://www.freeworldgroup.com/games8/fatmooncanon/fatmooncannon.swf
Fat Slice	ok	quick	http://www.freeworldgroup.com/games8/fatslice/fatslice.swf
Fat Turkey	ok	quick	http://www.freeworldgroup.com/games6/fatturkey/fatturkey.swf
Fear Less	ok	quick	http://assets.kongregate.com/gamez/0016/8918/live/fearless.swf
Feed Me Brains	ok	quick	http://www.freeworldgroup.com/games9/feedmebrains/feed-me-brains-human-freeworldgroup.swf
Feed Our Donut Overlords	ok	quick	http://www.freeworldgroup.com/games9/feedourdonutoverlords/feedourdonutoverlords.swf
Ffxtmas Running	ok	quick	http://www.freeworldgroup.com/games6/ffxmas/FFXtmas.dcr
Fidget Spinner	skip	quick	10
Fidi	ok	quick	http://www.freeworldgroup.com/games8/fidi/fidi.swf
Fifty Two	ok	quick	http://www.freeworldgroup.com/games9/fiftytwo/fiftytwo.swf
Figure Fix	ok	quick	http://www.freeworldgroup.com/games8/figurefix/figurefix.swf
Filler	ok	quick	http://www.freeworldgroup.com/games6/filler/filler.swf
Fill the Bar	skip	quick	10
Finding Santa	ok	quick	http://www.freeworldgroup.com/games8/findingsanta/findingSanta_girlgames.swf
Find the Cow	ok	quick	http://www.freeworldgroup.com/games9/findthecow/findthecow.swf
Find the Pug	skip	quick	10
Find Your Valentine	ok	quick	http://www.freeworldgroup.com/games8/findyourvalentine/findyourvalentine.swf
Firefly	ok	quick	http://www.freeworldgroup.com/games9/firefly/firefly.swf
First Person Tetris	ok	quick	http://www.freeworldgroup.com/games8/firstpersontetris/firstpresontertis.swf
Fish Inc.	skip	quick	10
Fishy Hop	ok	quick	http://www.freeworldgroup.com/games8/FishyHop/FishyHop.swf
Fizzion	skip	quick	10
Fizzy Frenzy	ok	quick	http://www.freeworldgroup.com/games9/fizzyfrenzy/fizzyfrenzy.swf
Flakboy	ok	quick	http://www.freeworldgroup.com/games8/flakboy/Flakboy.swf
Flapcat Copters	skip	quick	10
FlapCat Christmas	skip	quick	10
FlapCat Halloween	skip	quick	10
FlapCat Steampunk	skip	quick	10
Flappy Bird	skip	quick	10
Flic	ok	quick	http://www.freeworldgroup.com/games6/flic/flic.swf
Floater	ok	quick	http://www.freeworldgroup.com/games8/floater/floater.swf
Flood Runner 3	ok	quick	http://www.freeworldgroup.com/games9/floodrunner3/floodrunner3.swf
Flood Runner 4	ok	quick	http://www.freeworldgroup.com/games9/floodrunner4/floodrunner4.swf
Floppy Fly	skip	quick	10
Fluby	ok	quick	http://www.freeworldgroup.com/games9/fluby/fluby.swf
Fly Again	skip	quick	10
Flying Cat	ok	quick	http://www.freeworldgroup.com/games9/flyingcat/flyingcat.swf
Flying Fish	ok	quick	http://www.freeworldgroup.com/games6/flyingfish/flyingfish.swf
Flying School	skip	quick	10
Flying spaghetti monster	ok	quick	http://www.freeworldgroup.com/games2/spaghetti/FSM_game.swf
Fly Meow	ok	quick	http://www.freeworldgroup.com/games9/flymeow/flymeow.swf
Fly Squirrel Fly	ok	quick	http://www.freeworldgroup.com/games8/flysquirrelfly/fly-squirrel-fly.swf
Fly to the Moon	ok	quick	http://www.freeworldgroup.com/games8/flytothemoon/flytothemoon.swf
Floats	ok	quick	http://www.freeworldgroup.com/games5/floats/floats.swf
Fluxball	ok	quick	http://www.freeworldgroup.com/games8/fluxball/fluxball.swf
Fly Hard	ok	quick	http://www.freeworldgroup.com/games8/flyhard/flyhard.swf
Flying Cat	ok	quick	http://www.freeworldgroup.com/games6/flyingcat/flyingcat.swf
Flying Platypus	ok	quick	http://www.freeworldgroup.com/games6/flyingplatypus/flyingplatypus_freeworld.swf
FoodShoot	ok	quick	http://assets.kongregate.com/gamez/0017/0056/live/FoodShoot.swf
Forkit	ok	quick	http://www.freeworldgroup.com/games8/forkit/forkit.swf
Frantic Frigates	ok	quick	http://www.freeworldgroup.com/games9/franticfrigates/franticfrigates.swf
Frizzle Fraz 2	ok	quick	http://www.freeworldgroup.com/games9/frizzlefraz2/friz.swf
Frogged	ok	quick	http://www.freeworldgroup.com/games9/frogged/frogged.swf
Frogger	fail	quick	6
Fruity Week	ok	quick	http://www.freeworldgroup.com/games9/fruityweek/fruityweek.swf
Frustration Xmas	ok	quick	http://www.freeworldgroup.com/games8/frustrationxmas/frustrationxmas.swf
Fuddle	ok	quick	http://www.freeworldgroup.com/games8/fuddle/fuddle.swf
Funniest Catch	ok	quick	http://www.freeworldgroup.com/games9/funniestcatch/funniestcatch.swf
Funny Socks	ok	quick	http://www.freeworldgroup.com/games9/funny-socks/funny-socks.swf
Furrble Inc	ok	quick	http://www.freeworldgroup.com/games9/furrbleinc/FurrbleInc_Open.swf
Futurecade	ok	quick	http://www.freeworldgroup.com/games9/futurecade/futurecade.swf
FWG Defender	skip	quick	10
FWG Flight	skip	quick	10
FWG Flight Advanced	skip	quick	10
FWG Potato	skip	quick	10
FWG Valentines	ok	quick	http://www.freeworldgroup.com/games8/fwgvalentines/fwgvalentines.swf
Galactic Clicker	skip	quick	10
Galaxies	ok	quick	http://www.freeworldgroup.com/games8/galaxies/galaxies.swf
Galaxy Jumper	ok	quick	http://www.freeworldgroup.com/games9/galaxyjumper/galaxyjumper.swf
Galaxy Siege	ok	quick	http://www.freeworldgroup.com/games9/galaxysiege/galaxysiege.swf
GameToilet	skip	quick	10
Gangnam Run	ok	quick	http://www.freeworldgroup.com/games9/gangnamrun/gangnamrun.swf
Gas Pump Simulator	skip	quick	10
GatherX	skip	quick	10
Gemstone Hunter	ok	quick	http://www.freeworldgroup.com/games8/gemstonehunter/gemstonehunter.swf
Genie	ok	quick	http://www.freeworldgroup.com/games9/genie/geniefwg.swf
Geo Jump	skip	quick	10
Geometry Rash	skip	quick	10
Get Closer	ok	quick	http://www.freeworldgroup.com/games9/getcloser/getcloser.swf
Get the Toy	ok	quick	http://www.freeworldgroup.com/games9/getthetoy/getthetoy.swf
Gibbets 2	ok	quick	http://www.freeworldgroup.com/games8/gibbets2/gibbets2.swf
Gibbets 3	ok	quick	http://www.addictinggames.com/newGames/shooting-games/gibbets3/gibbets3.swf
Gibbets 4	skip	quick	10
Give Me All Your Coins	skip	quick	10
Glide	ok	quick	http://www.freeworldgroup.com/games9/glide/glide.swf
Glimpse	skip	quick	10
Glowcut	ok	quick	http://www.freeworldgroup.com/games8/glowcut/GlowCut.swf
Goblin Flying Machine	ok	quick	http://www.freeworldgroup.com/games9/goblinflyingmachine/goblinflyingmachine.swf
God of War	ok	quick	http://www.freeworldgroup.com/games8/godofwar/godofwar.swf
GoGo Agent Zero	ok	quick	http://www.freeworldgroup.com/games9/gogoagentzero/gogoagentzero.swf
GoGo Goblin	ok	quick	http://www.freeworldgroup.com/games9/gogogoblin/gogogoblin.swf
Go Go Goblin 2	skip	quick	10
Go Green Go	ok	quick	http://www.freeworldgroup.com/games5/gogreengo/gogreengo.swf
Going Mental	ok	quick	http://www.freeworldgroup.com/games9/goingmental/goingmental.swf
Gold Mine	skip	quick	10
Gold Miner Jack	skip	quick	10
Gold Miner Tom	skip	quick	10
Gornax	ok	quick	http://www.freeworldgroup.com/games9/gornax/gornax.swf
Go Squirrel Go	ok	quick	http://www.freeworldgroup.com/games6/gosquirrelgo/370929_gosquirrel.swf
Grapple Cat	skip	quick	10
Grave robber	ok	quick	http://www.freeworldgroup.com/games4/grave/game4.swf
Gravity Hook	ok	quick	http://www.freeworldgroup.com/games8/gravityhook/gravityhook.swf
GravityTap	skip	quick	10
Gray	ok	quick	http://www.freeworldgroup.com/games8/gray/gray.swf
Green It 3	skip	quick	10
Greeny	ok	quick	http://www.freeworldgroup.com/games9/greeny/greeny.swf
Greeny Gap	ok	quick	http://www.freeworldgroup.com/games9/greenygap/greenygap.swf
GrindCraft	skip	quick	10
Groom the Room	ok	quick	http://www.freeworldgroup.com/games8/groomtheroom/groomtheroom_kibagames_secure.swf
Growing Ties	skip	quick	10
GrubRunner	skip	quick	10
Gyroball	fail	quick	1
Halloween Quiz	ok	quick	http://www8.agame.com/games/flash/t/the_halloween_quiz/the_halloween_quiz.swf
Handless Millionaire	ok	quick	http://www.freeworldgroup.com/games9/handlessmillionaire/handlessmillionaire.swf
Handless Millionaire 2	ok	quick	
Hanger 2 Endless Level Pack	ok	quick	http://i.notdoppler.com/files/hanger2-endlesslevelpack.swf
Hard Boiled	ok	quick	http://www.freeworldgroup.com/games8/hardboiled/hardboiled.swf
Hardball 2	ok	quick	http://www.freeworldgroup.com/games9/hardball2/hardballfrenzy2.swf
Haste Makes Waste	ok	quick	http://www.freeworldgroup.com/games9/hastemakeswaste/hastemakeswaste.swf
Head Defence	ok	quick	http://www.freeworldgroup.com/games6/headdefence/headdefence.swf
Hell On Duty	ok	quick	http://assets.kongregate.com/gamez/0016/9505/live/HellOnDutyCPMStar.swf
Hex Blitz	skip	quick	10
Highwayman	skip	quick	10
Hippos Feeder	ok	quick	http://www.freeworldgroup.com/games9/gameindex/hipposfeeder/hippos-noads-v5.swf
Hit Justin Bieber	ok	quick	http://www.freeworldgroup.com/games9/justinbeaver/justin-beaver.swf
Hole in the Wall	skip	quick	10
Holliday Hoser	ok	quick	http://www.freeworldgroup.com/games5/hollidayhoser/game23.swf
Holiday Sim	ok	quick	http://www.freeworldgroup.com/games9/holidaysim/holidaysim.swf
Hopagon	ok	quick	http://www.freeworldgroup.com/games9/hopagon/hopagon.swf
HopHero	skip	quick	10
Hops	ok	quick	http://www.freeworldgroup.com/games9/hops/hops.swf
Hot Corn	ok	quick	http://www.freeworldgroup.com/games6/hotcorn/hotcorn.swf
How Dare You	skip	quick	10
How to Cook Everything	skip	quick	10
Human Chop	skip	quick	10
Human Evolution	ok	quick	http://www.freeworldgroup.com/games9/humanevolution/humanevolution.swf
Hungry Pig	ok	quick	http://www.freeworldgroup.com/games9/hungrypig/hungrypig.swf
Hyper Tunnel	skip	quick	10
I Am Flying to the Moon	ok	quick	http://www.addictinggames.com/newGames/action-games/iamflyingtothemoon/iamflyingtothemoon.swf
I Can Fly	ok	quick	http://www.freeworldgroup.com/games9/icanfly/icanfly.swf
Icy Gifts	ok	quick	http://www.freeworldgroup.com/games9/icygifts/icygifts.swf
Icy Gifts 2	ok	quick	http://www.freeworldgroup.com/games9/icygifts2/icygifts2.swf
Impossible Horse	skip	quick	10
Indefinite Interrogation Game	skip	quick	10
Idle Build	skip	quick	10
Idle Empire	skip	quick	10
Idle Star	skip	quick	10
Idle, The Never Ending Job	ok	quick	http://www.freeworldgroup.com/games8/idletheneverendingjob/idletheneverendingjob.swf
Idle Woodcutting	skip	quick	10
Increditbots 2	ok	quick	http://www.freeworldgroup.com/games8/incredibots2/incredibots2.swf
Inexplicable Meat Mound	skip	quick	10
Infinity	skip	quick	10
Insert Coin	skip	quick	10
Intense Staring Simulator	ok	quick	http://www.freeworldgroup.com/games9/intensestaringsimulator/intensestaringsimulator.swf
Interactive Buddy	ok	quick	http://www.freeworldgroup.com/games9/interactivebuddy/interactivebuddy.swf
Interactive Buddy 2	ok	quick	http://www.freeworldgroup.com/games9/interactivebuddy2/interactivebuddy2.swf
Into Space 2	ok	quick	http://i.notdoppler.com/files/intospace2.swf
Invisible Cursor	ok	quick	http://www.freeworldgroup.com/games6/invisiblecursor/invisiblecursor.swf
Invisible Cursor 2	ok	quick	http://www.freeworldgroup.com/games8/Invisible_cursor/Invisible_cursor.swf
I Saw Her Too	skip	quick	10
It's Raing Cats and Dogs	ok	quick	http://www.freeworldgroup.com/games8/itsrainingcatsanddogs/itsrainingcatsanddogs.swf
Jack O'Lantern Maker	ok	quick	http://www.freeworldgroup.com/games9/jackolantern/Jack_o_Lantern_FWG.swf
Jack the Zombie	skip	quick	10
James Replay	ok	quick	http://www.freeworldgroup.com/games8/jamesreplay/jamesreplay.swf
Jello	ok	quick	http://www.freeworldgroup.com/games6/japanesejello/japanesejello.swf
Jellyfish	ok	quick	http://www.freeworldgroup.com/games6/jellyfish/372944_Finished_Jellyfish.swf
Jelly Lift	skip	quick	10
Jelly Tower	ok	quick	http://www.freeworldgroup.com/games9/jellytower/jellytower.swf
Jet Boy	skip	quick	10
Jetpack Jailbreak	ok	quick	http://www.freeworldgroup.com/games8/jetpackjailbreak/jetpackjailbreak.swf
Jig	ok	quick	http://www.freeworldgroup.com/games2/jig/257208_jig.swf
Joe's Farm	ok	quick	http://www.freeworldgroup.com/games6/joesfarm/farm.swf
Juicy Bazooka	skip	quick	10
Jump	ok	quick	http://www.freeworldgroup.com/games5/jump/jump.swf
Jump - 2	ok	quick	http://www.freeworldgroup.com/games8/jump/jump.swf
Jump Cat	ok	quick	http://www.freeworldgroup.com/games6/jumpcat/jump.swf
Jump Doper	skip	quick	10
Jumper Frog	skip	quick	10
Jumpie 2	ok	quick	http://www.freeworldgroup.com/games8/jumpie2/jumpie2.swf
Jumping Box Remake	ok	quick	http://www.freeworldgroup.com/games9/jumpingboxremake/jumpingboxremake.swf
Jump in the Dark	ok	quick	http://www.freeworldgroup.com/games9/jumpinthedark/jumpinthedark.swf
Jump n Smash	ok	quick	http://www.freeworldgroup.com/games8/jumpnsmash/jumpnsmash.swf
Jump Out! The Box	skip	quick	10
Jump with Justin	skip	quick	10
Just Avoid It	ok	quick	http://www.freeworldgroup.com/games8/justavoidit/justavoidit.swf
Just Hanging Around	ok	quick	http://www.freeworldgroup.com/games6/justhangingaround/hangingaround.swf
Keyboard Mayhem	ok	quick	http://www.freeworldgroup.com/games8/keyboardmayhem/keyboardmayhem.swf
Kick Justin Beaver	ok	quick	http://www.freeworldgroup.com/games9/kickjustinbeaver/kickjustinbeaver.swf
Kick Out Bieber	ok	quick	http://www.freeworldgroup.com/games9/kickoutbieber/kickoutbieber.swf
Kick the Critter	skip	quick	10
Kid Launcher	ok	quick	http://www.freeworldgroup.com/games8/kidlauncher/kidlauncher.swf
Killawatt	ok	quick	http://www.freeworldgroup.com/games6/killawatt/Killawatt.swf
Kill Justin Beaver	ok	quick	http://www.freeworldgroup.com/games9/killjustinbeaver/killjustinbeaver.swf
Kill Me	ok	quick	http://www.freeworldgroup.com/games8/killme/killme.swf
Kill the Wabbits	ok	quick	http://www.freeworldgroup.com/games8/killthewabbits/killwabbits.swf
Kill Those Ponys	ok	quick	http://www.freeworldgroup.com/games9/killthoseponys/killthoseponys.swf
King of Pong Multiplayer	ok	quick	http://www.freeworldgroup.com/games9/kingofpong/kingofpong.swf
King's Ascent	ok	quick	http://www.freeworldgroup.com/games9/kingsascent/kingsascent.swf
King's Game 2	ok	quick	http://www.freeworldgroup.com/games9/kingsgame2/kingsgame2.swf
King's Rush	skip	quick	10
Kissy Square	skip	quick	10
Kitty Punch	ok	quick	http://www.freeworldgroup.com/games9/kittypunch/kittypunch.swf
Knife Rain	skip	quick	10
Knight Runner	skip	quick	10
Knights of Rock	ok	quick	http://www.freeworldgroup.com/games6/knightsofrock/365269_knightsofrock.swf
Korrode	ok	quick	http://www.freeworldgroup.com/games9/korrode/korrode.swf
Koto	skip	quick	10
KungFruit	ok	quick	http://www.freeworldgroup.com/games9/kungfruit/kungfruit.swf
Kush	ok	quick	http://www.freeworldgroup.com/games6/kush/kush[1].swf
Kwikgames	ignored	quick	11
Ladybug Dating	ok	quick	http://www.freeworldgroup.com/games6/ladybugdating/ladybug.swf
Lama's Way	ok	quick	http://www.freeworldgroup.com/games9/lamasway/lamasway.swf
Lamb Chop Drop	ok	quick	http://www.freeworldgroup.com/games6/lambchopdrop/lcd.swf
Land Lobber	ok	quick	http://www.freeworldgroup.com/games9/landlobber/landlobber.swf
Land of Mines	ok	quick	http://www.bigdino.com/games/land-of-mines.swf
Lanelike	skip	quick	10
Larry Big Dipper	ok	quick	http://www.freeworldgroup.com/games8/larrybigdipper/larrybigdipper.swf
Laser Cannon 3	skip	quick	10
Laser Cannon 3 Level Pack	skip	quick	10
Last Robot 2	ok	quick	http://www.freeworldgroup.com/games9/lastrobot2/lastrobot2.swf
Late for Xmas	ok	quick	http://www.freeworldgroup.com/games8/lateforxmas/lateforchristmas.swf
Launch to the Moon	ok	quick	http://www.freeworldgroup.com/games9/launchtothemoon/launchtothemoon.swf
Lazy Santa	skip	quick	10
Leaks	ok	quick	http://www.freeworldgroup.com/games9/leaks/leaks.swf
Leaves Boy	skip	quick	10
Learn to Fly	ok	quick	http://www.freeworldgroup.com/games8/learntofly/learntofly.swf
Learn to Fly 3	skip	quick	10
Left or Right	ok	quick	http://www.freeworldgroup.com/games8/leftorright/leftorright.swf
Lemon Smash	ok	quick	http://www.freeworldgroup.com/games6/lemonsmash/lemonsmash.swf
Leonard Luckless	ok	quick	http://www.freeworldgroup.com/games9/leonard-luckless/leonard-luckless.swf
Let's Go Jaywalking	skip	quick	10
Life	skip	quick	10
LifeLine	skip	quick	10
Light People on Fire	ok	quick	http://www.freeworldgroup.com/games6/lightpeopleonfire/lightpeopleonfire.swf
Line Game Orange	ok	quick	http://www.freeworldgroup.com/games8/linegameorange/linegameorange.swf
LineRider 3.3	ok	quick	http://www.freeworldgroup.com/games6/lineflyer/lineflyer.swf
Liquid 2	ok	quick	http://www.freeworldgroup.com/games9/liquid2/liquid2.swf
Little Guy	skip	quick	10
Little shepherd	ok	quick	http://www.freeworldgroup.com/games2/littleshepherd/game2.swf
Live Wires	ok	quick	http://www.freeworldgroup.com/games6/livewires/livewires.swf
Lofty Towers 2	ok	quick	http://www.freeworldgroup.com/games9/loftytowers2/loftytowers2.swf
Lolwut	ok	quick	http://www.freeworldgroup.com/games9/lolwut/lolwut.swf
Lost and Found	ok	quick	http://www.freeworldgroup.com/games8/lostandfound/Lost-and-found.swf
Lucky Clover	ok	quick	http://www.freeworldgroup.com/games6/luckyclover/luckyclover.swf
Luis Launch	ok	quick	http://www.freeworldgroup.com/games8/luislaunch/luislaunch.swf
Madness Death Wish	ok	quick	http://www.freeworldgroup.com/games6/madnessdeathwish/madness.swf
Madness Reaction Time	ok	quick	http://www.freeworldgroup.com/games6/madness-reaction-time/71880_madnessreactiontime.swf
Mad Pac	ok	quick	http://www.freeworldgroup.com/games4/madpac/madpac.swf
Mad Skeletons	ok	quick	http://www.freeworldgroup.com/games9/madskeletons/madskeletons.swf
Mafia Stories	ok	quick	http://www.freeworldgroup.com/games9/mafiastories/mafiastories.swf
Magic Eggs	ok	quick	http://www.freeworldgroup.com/games9/magiceggs/magiceggs.swf
Magic Hat	skip	quick	10
Magma Mayhem	ok	quick	http://www.freeworldgroup.com/games8/magmamayhem/magmamayhem.swf
Magnetized	fail	quick	0
Maku the Rain Cloud	ok	quick	http://www.freeworldgroup.com/games8/makutheraincloud/makutheraincloud.swf
Mandala Coloring Book	skip	quick	10
Man Hunter	ok	quick	http://www.freeworldgroup.com/games8/manhunter/manhunter.swf
Man in Gap	ok	quick	http://www.freeworldgroup.com/games9/maningap/maningap.swf
March Game	skip	quick	10
Mario Toss	ok	quick	http://www.freeworldgroup.com/g/stormycastle/stormy-castle.swf
Marmoot	ok	quick	http://www.freeworldgroup.com/games9/marmoot/marmoot.swf
Mars Space Quest	skip	quick	10
Mass Attack	ok	quick	http://www.freeworldgroup.com/games6/massattack/massattack.swf
Master Blaster	ok	quick	http://www.freeworldgroup.com/games6/3daysgracemasterblasterdx/masterblasterdeluxe.swf
Maustrap	ok	quick	http://www.freeworldgroup.com/games9/maustrap/maus_trap1.swf
Maze 4	ok	quick	http://www.freeworldgroup.com/games9/maze4/maze4.swf
Mazeman 2	ok	quick	http://www.freeworldgroup.com/games8/mazeman2/mazeman2.swf
Mazenetix	ok	quick	http://www.freeworldgroup.com/games8/mazenetix/mazenetix.swf
Mazestopper 3	ok	quick	http://www.freeworldgroup.com/games8/mazestopper3/mazestopper.swf
Meal Master	ok	quick	http://www.freeworldgroup.com/games8/mealmaster/mealmasters.swf
Me and the Key	ok	quick	http://www.freeworldgroup.com/games8/meandthekey/meandthekey.swf
Mechanipig	ok	quick	http://www.freeworldgroup.com/games9/mechanipig/mechanipig.swf
Mech Dressup Game	ok	quick	http://www.freeworldgroup.com/games8/mechadressupgame/mechadressupgame.swf
Medieval Gunpowder	ok	quick	http://www.freeworldgroup.com/games9/medievalgunpowder/MedievalGundpowder.swf
Meloball	ok	quick	http://www.freeworldgroup.com/games8/meloball/meloball.swf
Memory	fail	quick	1
Metal Ball	ok	quick	http://www.freeworldgroup.com/games6/metalball/mb_game.swf
Metro Siberia	ok	quick	http://www.freeworldgroup.com/games6/metrosiberia/metrosiberia.swf
Metro Siberia PP Edition	ok	quick	http://www.freeworldgroup.com/games6/metrosiberiappedition/metrosiberiappedition.swf
Mexican Hat Catch	ok	quick	http://www.freeworldgroup.com/games6/mexicanhatcatch/mexicanhatcatch.swf
Miami Shark	ok	quick	http://www.freeworldgroup.com/games8/miamishark/miamishark.swf
Michael J Soundboard	ok	quick	http://www.freeworldgroup.com/games8/michaeljacksonsoundboard/michaeljacksonsoundboard.swf
Micro Tanks	ok	quick	http://www.freeworldgroup.com/games2/microtanks/microtanks.swf
Midnight Miner	skip	quick	10
Mileage Ace	ok	quick	http://www.freeworldgroup.com/games9/MileageAce/MileageAce.swf
Milk panic	fail	quick	1
Minecraft Scene Creator 2	ok	quick	
Mine Trip	skip	quick	10
Minequest	skip	quick	10
Minizombie	ok	quick	http://www.freeworldgroup.com/games9/minizombie/minizombie.swf
Mission to Jupiter	ok	quick	http://www.freeworldgroup.com/games8/missiontojupiter/missiontojupiter.swf
Mole vs Lava	ok	quick	http://www.freeworldgroup.com/games8/molevslava/molevslava.swf
Molies	ok	quick	http://www.freeworldgroup.com/games9/molies/molies.swf
Mo Miner	ok	quick	http://www.freeworldgroup.com/games8/mominer/mominer.swf
Monkey Monkey	ok	quick	http://www.freeworldgroup.com/games8/monkeymonkey/monkey.swf
Moolga	ok	quick	http://www.freeworldgroup.com/games6/moolga/moolga.swf
Moon Defender	ok	quick	http://www.freeworldgroup.com/games6/moondefender/moonDefender.dcr
Monkey Go Happy	ok	quick	http://www.freeworldgroup.com/games8/monkeygohappy/monkeygohappy.swf
Monster Clicker	skip	quick	10
Monsters Packers	ok	quick	http://www.freeworldgroup.com/games9/monsterspackers/monsterspackers.swf
Monsters Towers	skip	quick	10
Monty's Moon	skip	quick	10
Moon Sweeper	ok	quick	http://www.freeworldgroup.com/games5/moonsweeper/327075_ms.swf
Moose to the Moon	ok	quick	http://www.freeworldgroup.com/games9/moosetothemoon/moosetothemoon.swf
Monkey Kick-Off	ok	quick	http://www.miniclip.com/swfcontent/freegames/monkeykickoff.swf
Monsters of Rock	ok	quick	http://www.freeworldgroup.com/games6/monstersofrock/montersofrock.swf
More Beer	ok	quick	http://www.freeworldgroup.com/games5/morebeer/morebeer.swf
Morplee	ok	quick	http://www.freeworldgroup.com/games9/morplee/morplee.swf
Mortanoid	ok	quick	http://www.freeworldgroup.com/games5/mortanoid/mortanoid.swf
Motorcycle Dummy	ok	quick	http://www.freeworldgroup.com/games9/motorcycle-dummy/motorcycle-dummy.swf
Mounteruption	ok	quick	http://www.freeworldgroup.com/games8/mounteruption/mounteruption2.swf
Mr Fatsnake	ok	quick	http://www.freeworldgroup.com/games9/mrfatsnake/mrfatsnake.swf
Mr Mothball	ok	quick	http://www.freeworldgroup.com/games6/mrmothball3/mrmothball3.swf
Mr Mullet	ok	quick	http://www.freeworldgroup.com/games8/mrmullet/Barber.swf
Multiplicative Idle Game	skip	quick	10
Mulit-task Game	ok	quick	http://www.freeworldgroup.com/games8/multitaskgame/MultitaskGame.swf
Mummy Mojo	skip	quick	10
Murder Game	skip	quick	10
Mushroom Cannon	ok	quick	http://www.freeworldgroup.com/games8/mushroomcannon/mushroomcannon.swf
Musical Pixels	ok	quick	http://www.freeworldgroup.com/games8/musicalpixels/musicalpixels.swf
Music Catch 2	ok	quick	http://www.freeworldgroup.com/games8/musiccatch2/musiccatch2.swf
Music Quest	ok	quick	http://www.freeworldgroup.com/games9/musicquest/player_8108c.swf
Must Eat Birds	ok	quick	http://www.freeworldgroup.com/games8/musteatbirds/musteatbirds.swf
Must Escape the Castle	ok	quick	http://www.freeworldgroup.com/games9/mustescapethecastle/mustescapethecastle.swf
Mutilate a Doll 2	skip	quick	10
My Own Unicorn	ok	quick	http://www.freeworldgroup.com/games9/myownunicorn/myownunicorn.swf
Mysterious Night Slot	skip	quick	10
Nak the Crunkodile	ok	quick	http://www.freeworldgroup.com/games9/nakthecrunkodile/nakthecrunkodile.swf
Nanny in Space	ok	quick	http://www.freeworldgroup.com/games9/nannyinspace/nannyinspace.swf
Nano Ninja	ok	quick	http://www.freeworldgroup.com/games8/nanoninja/nanoninja.swf
Natural Selection Game	ok	quick	http://assets.kongregate.com/gamez/0017/5330/live/NaturalSelection.swf
Natural Selection 2	skip	quick	10
Necrorun	ok	quick	http://www.freeworldgroup.com/games9/necrorun/necrorun.swf
Need to Feed	ok	quick	http://www.freeworldgroup.com/games9/needtofeed/needtofeed.swf
Nemonuri Tower	ok	quick	http://www.freeworldgroup.com/games9/nemonuritower/nemonduritower.swf
Neo Jump	skip	quick	10
Neverending Chevalier	skip	quick	10
Next Avoider	skip	quick	10
Notessimo	ok	quick	http://www.freeworldgroup.com/games6/notessimo/main[1].swf
Night Shade	ok	quick	http://www.freeworldgroup.com/games8/night-shade/nightshade.swf
Ninja Assault	ok	quick	http://www.freeworldgroup.com/games5/ninjaassault/ninjaassault.swf
Ninja Ballers	ok	quick	http://www.freeworldgroup.com/games8/ninjaballers/ninja.swf
Ninja Glove	ok	quick	http://www.freeworldgroup.com/games8/ninjaglove/ninjaglove.swf
Ninja WallRunner	skip	quick	10
Noitcelfer 2	ok	quick	http://www.freeworldgroup.com/games9/noitcelfer2/noitcelfer2.swf
Normal Cat	skip	quick	10
No Smoking Game	ok	quick	http://www.freeworldgroup.com/games6/no-smoking/no-smoking.swf
Not In My Dungeon	skip	quick	10
Nuclear Ragdoll	ok	quick	http://www.addictinggames.com/D78AQSAKQLQWI9/7348.swf
Nuclearoids	ok	quick	http://www.freeworldgroup.com/games9/nuclearoids/Nuclearoids.swf
Nude Hunter	ok	quick	http://www.freeworldgroup.com/games9/nudehunter/nudehunter.swf
Nutty Mania	ok	quick	http://www.freeworldgroup.com/games9/nuttymania/nutty-mania.swf
Nyan Cat 2	ok	quick	http://www.freeworldgroup.com/games9/nyancat2/nyan-cat-2.swf
Nyan Cat 3	ok	quick	http://www.freeworldgroup.com/games9/nyancat3/nyancat3.swf
Nyrdl Madness	ok	quick	http://www.freeworldgroup.com/games8/nyrdlmadness/nyrdlmadness.swf
Obechi	ok	quick	http://www.freeworldgroup.com/games8/obechi/obechi.swf
Obsolescence	ok	quick	http://www.fwgforum.com/obsolescence/obsolescence.unity3d
Octopost	ok	quick	http://www.freeworldgroup.com/games9/octopost/octopost.swf
Oh Snow	ok	quick	http://www.freeworldgroup.com/games9/ohsnow/ohsnow.swf
Omnom Forest	ok	quick	http://www.freeworldgroup.com/games9/omnomforest/omnomforest.swf
Om Nom Nom	ok	quick	http://www.freeworldgroup.com/games8/omnomnom/omnomnom.swf
One Direction in Concert Makeover	ok	quick	http://www.freeworldgroup.com/games9/onedirectioninconcertmakeover/onedirectioninconcertmakeover.swf
One Level Game	ok	quick	http://www.freeworldgroup.com/games6/onelevelgame/onelevelgame.swf
One Level Game Silver	ok	quick	http://www.freeworldgroup.com/games6/onelevelgamesilver/onelevelgamesilver.swf
One of the Herd	skip	quick	10
One Way Cannon	ok	quick	http://www.freeworldgroup.com/games9/onewaydungeon/onewaydungeon.swf
Onslaught	ok	quick	http://www.freeworldgroup.com/games5/onslaught/onslaught.swf
oO Game	skip	quick	10
Ooki Cookie	ok	quick	http://www.freeworldgroup.com/games9/ookicookie/ookicookie.swf
Operate Now - Dental Implant	skip	quick	10
Orange Roulette	ok	quick	http://www.freeworldgroup.com/games9/orangeroulette/orangeroulette.swf
Orb 2	ok	quick	http://www.freeworldgroup.com/games6/orb2/orb2[1].swf
Orbflex	ok	quick	http://www.freeworldgroup.com/games6/orbflex/orbflex.swf
Orbit	skip	quick	10
Orbitz	ok	quick	http://www.freeworldgroup.com/games8/orbitz/orbitz.swf
Orchard 2	ok	quick	http://www.freeworldgroup.com/games9/orchard2/orchard2.swf
Outcome	skip	quick	10
Outside there are 13 Kids in Spooky Costumes	skip	quick	10
Overmaze	ok	quick	http://www.freeworldgroup.com/games8/overmaze/overmaze.swf
Over the Border	ok	quick	http://www.freeworldgroup.com/games9/overtheborder/overtheborder.swf
Owl Spin	ok	quick	http://www.freeworldgroup.com/games9/owlspin/owlspin.swf
Paccoland	ok	quick	http://www.freeworldgroup.com/games8/paccoland/paccoland600x400.swf
Pacman 2005	ok	quick	http://www.freeworldgroup.com/games2/poc/257289_Pacman_2005.swf
Pac vs Alien	ok	quick	http://www.freeworldgroup.com/games8/pacvsalien/pacvsalien.swf
Paint Ball	ok	quick	http://www.freeworldgroup.com/games6/paintball/paintball.swf
Paint it Red	ok	quick	http://www.freeworldgroup.com/games8/paintitred/paintitred.swf
PaintWorld	ok	quick	http://i.notdoppler.com/files/paintworld.swf
PaintWorld 2	ok	quick	http://www.freeworldgroup.com/games9/paintworld2/paintworld2.swf
Panda Love	skip	quick	10
Pan Man	skip	quick	10
Paper Cannon	ok	quick	http://www.freeworldgroup.com/games8/papercannon/papercannon.swf
Paper Plane	ok	quick	http://www.freeworldgroup.com/games8/paperplane/paperplane.swf
Paper Plane Madness 2	ok	quick	http://www.freeworldgroup.com/games6/paperplanemadness2/paper.swf
Parapop	ok	quick	http://www.freeworldgroup.com/games9/parapop/parapop.swf
Parkour Parkour	ok	quick	http://www.freeworldgroup.com/games8/parkourparkoour/parkourparkour.swf
Particle	ok	quick	http://www.freeworldgroup.com/games6/particle/357700_particle.swf
Particle Playground	ok	quick	http://www.freeworldgroup.com/games8/particleplayground/particleplayground.swf
Particle X	skip	quick	10
Passage of Time	ok	quick	http://www.freeworldgroup.com/games9/passageoftime/passageoftime.swf
Pass the Pint	ok	quick	http://www.freeworldgroup.com/games4/pint/passpint.swf
Patapon 3	ok	quick	http://www.freeworldgroup.com/games9/patapon3/patapon3.swf
Pathfinder	fail	quick	8
Pay Back	ok	quick	http://www.freeworldgroup.com/games6/payback/payback.swf
Pencil Racer	ok	quick	http://www.freeworldgroup.com/games6/pencilracer/pencilracer.swf
Pendulumeca	ok	quick	http://www.freeworldgroup.com/games6/pendulumeca/pendulumeca.swf
Penguin	ok	quick	http://www.freeworldgroup.com/games6/penguin/main.swf
Penguin Push	fail	quick	1
Penguins Can Fly	ok	quick	http://www.freeworldgroup.com/games9/penguinscanfly/penguinscanfly.swf
Penguins Can Fly 2	ok	quick	http://www.freeworldgroup.com/games9/penguinscanfly2/penguinscanfly2.swf
People	ok	quick	http://www.freeworldgroup.com/games9/people/dangerouspeople.swf
Perfect Balance	ok	quick	http://www.freeworldgroup.com/games8/perfectbalance/perfectbalance.swf
Perfect Balance 3	ok	quick	http://www.freeworldgroup.com/games9/perfectbalance3/perfectbalance3.swf
Pets Balls	ok	quick	http://www.freeworldgroup.com/games9/petsballs/petsballs.swf
Phantom Slash	ok	quick	http://www.freeworldgroup.com/games9/phantomslash/phantomslash.swf
Photo King	ok	quick	http://www.freeworldgroup.com/games8/photoking/photoking.swf
Physics Phrenzy	ok	quick	http://www.freeworldgroup.com/games8/physics-phrenzy/physics.swf
Phytrix	ok	quick	http://www.freeworldgroup.com/games8/phytrix/phytrix.swf
Pigbull to the Moon	skip	quick	10
Pig on the Rocket	ok	quick	http://www.freeworldgroup.com/games6/pig/14085_PigOnTheRocket.swf
Pimp My Sleigh	ok	quick	http://www.tamba-games.co.uk/kwikfit/pimp-my-sleigh.swf
Pinata Hunter	ok	quick	http://www.freeworldgroup.com/games9/pinatahunter/Pinata_Defended_noAD.swf
Pinata Hunter 2	ok	quick	http://www.freeworldgroup.com/games9/pinatahunter2/pinatahunter2.swf
Pinkball 2	ok	quick	http://www.freeworldgroup.com/games9/pinkball2/pinkball.swf
Pipedream	ignored	quick	11
Pixel Escape	skip	quick	10
Pixel Explorer	ok	quick	http://www.freeworldgroup.com/games9/pixelexplorer/pixelexplorer.swf
Pixel Toilet	skip	quick	10
Pizza Passion	ok	quick	http://www.freeworldgroup.com/games6/pizzapassion/14736_pizza_passion.swf
Pizza Pusher	skip	quick	10
Planet Dash	skip	quick	10
Planet Splitters	skip	quick	10
Plants vs Bugs	ok	quick	http://www8.agame.com/mirror/flash/p/plants_vs_bugs/SPIL_Plants_Vs_Bugs.swf
Plimptons Video Of Falconry	ok	quick	http://www.freeworldgroup.com/games9/plimptromsvideofalconry/plimptonsvideofalconry.swf
Plumet	ok	quick	http://www.freeworldgroup.com/games8/plumet/plumet.swf
Plunder Mars	ok	quick	http://www.freeworldgroup.com/games9/plundermars/plundermars.swf
Pogo Rampage	skip	quick	10
Point and Click Advanced	ok	quick	http://www.freeworldgroup.com/games9/pointandclickadvanced/pointandclickadvanced.swf
Poise	ok	quick	http://www.freeworldgroup.com/games6/poise/poise[1].swf
Polar Jump	ok	quick	http://www.freeworldgroup.com/games5/polar-jump/polar-jump.swf
Politricks	ok	quick	http://www.freeworldgroup.com/games9/politricks/politricks.swf
Polygonal Fury	ok	quick	http://www.freeworldgroup.com/games8/polygonalfury/polygonalfury.swf
Pongout AE	ok	quick	http://www.freeworldgroup.com/games8/pongoutae/pongoutae.swf
Popboard	ok	quick	http://www.freeworldgroup.com/games8/popboard/Popboard_encrypt.swf
Pop Up!	skip	quick	10
Portal	ok	quick	http://www.freeworldgroup.com/games4/portal/portalul.swf
Portal Ball 2	ok	quick	http://www.freeworldgroup.com/games8/portalball2/Portal_Ball_Game_Version2.swf
Potatoman Seeks the Troof	skip	quick	10
Potty Racers 4 World Tour	ok	quick	http://www.freeworldgroup.com/games9/pottyracer4/pottyracer4.swf
Precision Game	skip	quick	10
Precision Strike 2	ok	quick	http://www.freeworldgroup.com/games9/precisionstrike2/precisionstrike2.swf
Presidents vs Terrorists	skip	quick	10
Pretentious Game	ok	quick	http://www.freeworldgroup.com/games9/pretentiousgame/pretentiousgame.swf
Primate Profile	ok	quick	http://www.freeworldgroup.com/games6/primate/game.swf
Prison Throw	ok	quick	http://www.freeworldgroup.com/games6/prisonthrow/prisonthrow.swf
Psychic Arrow	ok	quick	http://www.freeworldgroup.com/games9/psychicarrow/psychicarrow.swf
Puk Pirate	ok	quick	http://www.freeworldgroup.com/games6/pukpirate/pukpirate.swf
Pumpkin Collector	ok	quick	http://www.freeworldgroup.com/games9/pumpkincollector/pumpkincollector.swf
Pumpkinhead's Halloween Blast	skip	quick	10
Pumpkin Man 2	ok	quick	http://www.freeworldgroup.com/games8/pumpkinman2/pumpkinman.swf
Pumpkin Panic	ok	quick	http://www.freeworldgroup.com/games6/pumpkinpanic/pumpkin.swf
Punchifier	skip	quick	10
Puppy Fetch	ok	quick	http://www.freeworldgroup.com/games6/puppy-fetch/puppy-fetch.swf
PupRun	ok	quick	http://www.freeworldgroup.com/games9/puprun/puprun.swf
Purgatory Co.	skip	quick	10
Pushies Plus 2	ok	quick	http://www.freeworldgroup.com/games6/pushiesplus2/pushiesplus2.swf
Pushies Plus 2 V.2	ok	quick	http://www.freeworldgroup.com/games6/pushiesplus2v2/424201_pushies2v2[1].swf
Puzzle Cannon	ok	quick	http://www.freeworldgroup.com/games9/puzzlecannon/puzzlecannon.swf
Pyro II	ok	quick	http://www.addictinggames.com/D78AQSAKQLQWI9/6008.swf
Quad Pong	ok	quick	http://www.freeworldgroup.com/games8/quadpong/quadpong.swf
Quadratus 2	ok	quick	http://www.freeworldgroup.com/games8/quadratus2/Quadratus2.swf
Qubey the Cube	skip	quick	10
Quickdraw Gun 5	ok	quick	http://www.freeworldgroup.com/games9/quickdrawgun5/Quickdraw_GUN5.swf
Racc Beat	ok	quick	http://www.freeworldgroup.com/games9/raccbeat/raccbeat.swf
Race Right	skip	quick	10
Rachel's Kitchen Grand Prix	ok	quick	http://www8.agame.com/mirror/flash/r/Rachels_cooking_grandprix_seafood/CookingGrandprixWithRachelSeafoodSeries_GIRL.swf
Radical Racer	ok	quick	http://www.freeworldgroup.com/games6/radicalracer/radical_racer.swf
Radius	ok	quick	http://www.freeworldgroup.com/games6/radius/radius.swf
Raftwars	ok	quick	http://www.freeworldgroup.com/games6/raftwars/raftwars.swf
Ragdoll Achievement 2	skip	quick	10
Ragdoll Avalanche	ok	quick	http://www.freeworldgroup.com/games5/ragdoll/ragdoll.swf
Ragdoll Cannon 1.5	ok	quick	http://www.freeworldgroup.com/games8/ragdollcannon15/ragdollcannon15.swf
Ragdoll Cannon 2	ok	quick	http://www.freeworldgroup.com/games8/ragdollcannon2/ragdollcannon2.swf
Ragdoll Cannon 3	ok	quick	http://www.freeworldgroup.com/games9/ragdollcannon3/ragdollcannon3.swf
Ragdoll Invaders	ok	quick	http://www.freeworldgroup.com/games6/extremesketchpad/extremesketchpad.swf
Ragdoll Ninja	skip	quick	10
Ragdoll Parashooter	ok	quick	http://www.freeworldgroup.com/games9/ragdollparashooter/ragdollparashooter.swf
Ragdoll Savior	ok	quick	http://www.freeworldgroup.com/games8/ragdoll-savior/ragdollSaviorFINALPUBLISH.swf
Rail of Death	ok	quick	http://www.freeworldgroup.com/games9/railofdeath/railofdeath.swf
Rainbow Hamster	skip	quick	10
Rat Shot	ok	quick	http://www.freeworldgroup.com/games6/ratshot/RatShot.swf
Reach for the Sky	ok	quick	http://www.freeworldgroup.com/games8/reachforthesky/reach.swf
Reach the Core	skip	quick	10
Real World	ok	quick	http://www.freeworldgroup.com/games8/realworld/realworld.swf
Rektagon	skip	quick	10
Red	ok	quick	http://www.freeworldgroup.com/games5/red/red.swf
Red Ball	ok	quick	http://www.freeworldgroup.com/games6/redball/367124_redball.swf
Red Runner	skip	quick	10
Remote Control	ok	quick	http://www.freeworldgroup.com/games6/remotecontrol/remotecontrol.swf
Replaying the Game	ok	quick	http://www.freeworldgroup.com/games8/replayingthegame/replayingthegame.swf
Replica	ok	quick	http://www.freeworldgroup.com/games8/replica_v1/replica600x480.swf
Requiem	skip	quick	10
Rescuer of Souls	skip	quick	10
Resident Wiivile	ok	quick	http://www.freeworldgroup.com/games6/residentwiivile/366285_BlazeBunnys6.swf
Retro Handheld Game Arcade	fail	quick	0
Retro Unicorn Attack	skip	quick	10
RGB+Jump	skip	quick	10
Rhino Stampede	skip	quick	10
Rhythm Day	ok	quick	http://www.freeworldgroup.com/games6/rhythm-day/rhythmdaygame.swf
Rhythm Doctor	skip	quick	10
Rhythm Night	ok	quick	http://www.freeworldgroup.com/games6/rhythmnight/rhythmnight.swf
Ricochet Kills 2	ok	quick	http://www.freeworldgroup.com/games9/ricochetkills2/ricochetkills2.swf
Ricochet Shooter 3	ok	quick	http://www.freeworldgroup.com/games9/ricochetshooter3/Ricoshooter3-final.swf
Ricochet War	ok	quick	http://www.freeworldgroup.com/games9/ricochetwar/RicochetWar.swf
Ride 'em Rigby	skip	quick	10
Roadkill Revenge	ok	quick	http://www.freeworldgroup.com/games9/roadkillrevenge/roadkillrevenge.swf
Robotic Fishy	ok	quick	http://www.freeworldgroup.com/games6/roboticfish/roboticfish.swf
Robot Unicorn Attack Evolution	ok	quick	http://i.adultswim.com/adultswim/games3/game-files/robot-unicorn-attack-evolution/game.swf
Robot Unicorn Attack Heavy Metal	ok	quick	http://i.adultswim.com/adultswim/games3/game-files/robotunicornattackmetal/game.swf
Rocket 2	ok	quick	http://www.freeworldgroup.com/games9/rocket2/rocket2.swf
Rocket Panda: Flying Cookie Quest	ok	quick	http://www.addictinggames.com/newGames/funny-games/flying-cookie-quest/flying-cookie-quest.swf
Rocket Santa	ok	quick	http://www.freeworldgroup.com/games9/rocketsanta/rocketsanta.swf
Rocket Santa 2	ok	quick	http://www.freeworldgroup.com/games9/rocketsanta2/rocketsanta2.swf
Rocket Toilet	ok	quick	http://www.freeworldgroup.com/games9/rockettoilet/rockettoilet.swf
Rocketville	ok	quick	http://www.freeworldgroup.com/games9/rocketville/rocketville.swf
Rock n Roll Risk	ok	quick	http://www.freeworldgroup.com/games8/rocknrollrisk/rocknrollrisk.swf
Roly Poly Cannon	ok	quick	http://www.freeworldgroup.com/games8/rolypolycannon/rolypolycannon.swf
Rooftop Runner	ok	quick	http://www.freeworldgroup.com/games8/RooftopRunner/RooftopRunner.swf
Rose	ok	quick	http://www.freeworldgroup.com/games6/rose/383402_musicshapes2.swf
RPS-25	ok	quick	http://www.freeworldgroup.com/games5/paperrockscissors/319609_rps25.swf
Rubble Racer	ok	quick	http://www.freeworldgroup.com/games8/rubberracer/rubberracer.swf
Rudolf's Revenge	ok	quick	http://www.freeworldgroup.com/games6/rudolf-revenge/rudolfs.revenge.swf
Rugger Bugger	ok	quick	http://www.freeworldgroup.com/games6/ruggerbugger/ruggerbugger.swf
Rumble ball field 3	ok	quick	http://www.freeworldgroup.com/games2/rumble/255920_rumbleballf3ng.swf
Rum Tum	ok	quick	http://www.freeworldgroup.com/games9/rumtum/rumtum.swf
Run 2 Live	ok	quick	http://www.freeworldgroup.com/games9/run2live/run2live.swf
Run Broccoli	ok	quick	http://www.freeworldgroup.com/games3/runbroc/runlilbroccoli.swf
Run Raptor Rider	ok	quick	http://chat.kongregate.com/gamez/0017/6427/live/runRaptorRider.swf
Rune Towers	ok	quick	http://www.freeworldgroup.com/games8/rune-towers/runetowers.swf
Runner	ok	quick	http://www.freeworldgroup.com/games9/runner/runner.swf
RexRun	ok	quick	http://www.freeworldgroup.com/games9/rexrun/rexrun.swf
Sacrifire	skip	quick	10
Sandbox	ok	quick	http://www.freeworldgroup.com/games9/sandbox/Sandbox.swf
Santa Adventure	ok	quick	http://www.freeworldgroup.com/games6/santa-adventure/santa_adventure.swf
Santa Blob	ok	quick	http://www.freeworldgroup.com/games9/santablob/santablob.swf
Santa Can Fly	ok	quick	http://www.freeworldgroup.com/games9/santacanfly/santacanfly.swf
Santa Cannon	ok	quick	http://www.freeworldgroup.com/games6/santacannon/santascannon.swf
	ok	quick	http://www.freeworldgroup.com/games6/laserdefense/laserdefense.swf
Santa Caught Christmas	ok	quick	http://www.freeworldgroup.com/games8/santa_caught_christmas/santacaughtchristmas.swf
Santa Gift Jump	ok	quick	http://www.freeworldgroup.com/games6/santagiftjump/santagiftjump.swf
Santa Rockstar 2	ok	quick	http://www.freeworldgroup.com/games8/santarockstar2/santarockstar.swf
Santa ski jump	ok	quick	http://www.freeworldgroup.com/games/skijump/skijump.swf
Santa's Slay	ok	quick	http://www.freeworldgroup.com/games8/santasslay/santasslay.swf
Saucer Strike	ok	quick	http://www.freeworldgroup.com/games8/saucerstrike/saucerstrike.swf
Save Me!	ok	quick	http://www.freeworldgroup.com/games6/saveme/saveme.swf
Save Me 2	ok	quick	http://www.freeworldgroup.com/games6/saveme2/saveme2.swf
Save Me 3	ok	quick	http://www.freeworldgroup.com/games6/saveme3/saveme3.swf
Save Me Ultimate	ok	quick	http://www.freeworldgroup.com/games9/savemeultimate/savemeultimte.swf
Save the Flame	ok	quick	http://www.freeworldgroup.com/games9/savetheflame/savetheflame.swf
Save the Goons	skip	quick	10
Save the Piggy	ok	quick	http://www.freeworldgroup.com/games6/savethepiggy/save-the-piggy[1].swf
Scarfit	ok	quick	http://www.freeworldgroup.com/games8/scarfit/scarfit.swf
Scary Mary	skip	quick	10
Screamin Beans	skip	quick	10
Scriball	ok	quick	http://www.freeworldgroup.com/games8/scriball/scriball.swf
Scribble 2	ok	quick	http://www.freeworldgroup.com/games6/scribble2/360579_scribble2.swf
Scrumper	ok	quick	http://www.freeworldgroup.com/games8/scrumper/scrumper.swf
Seal bounce	fail	quick	1
Seascape	ok	quick	http://www.freeworldgroup.com/games6/seascape/Seascape.swf
Seeds	ok	quick	http://www.freeworldgroup.com/games9/seeds/seeds.swf
Sentinel	skip	quick	10
Sewer Slide Fury	ok	quick	http://www.freeworldgroup.com/games8/sewerslidefury/SewerSlideFury2.swf
Shadowess	ok	quick	http://www.freeworldgroup.com/games9/shadowess/shadowess.swf
Shapealicious	ok	quick	http://www.freeworldgroup.com/games6/shapealicious/shapealicious.swf
Shape Matcher	ok	quick	http://www.freeworldgroup.com/games9/shapematcher/shapematcher.swf
ShapeShape	ok	quick	http://www.freeworldgroup.com/games8/shapeshape/ShapeShapeFlash.swf
Shark Lifting 2	skip	quick	10
Shark Mountain	ok	quick	http://www.freeworldgroup.com/games8/sharkmountain/sharkmountain.swf
Shark's Key	ok	quick	http://www.freeworldgroup.com/games9/sharkskey/sharkskey.swf
Sheep 'n Poetry	ok	quick	http://www.freeworldgroup.com/games9/sheepnpoetry/sheepnpoetry.swf
Sheep Reaction Test	ok	quick	http://www.freeworldgroup.com/games6/sheepreactiontest/sheepreactiontest.swf
Sheep Wolf Mixer 3	ok	quick	http://www.freeworldgroup.com/games9/sheepwolfmixer/swm.swf
Shodge	ok	quick	http://www.freeworldgroup.com/games8/sodge/sodge.swf
Shoot5	skip	quick	10
Shootm	ok	quick	http://www.freeworldgroup.com/games8/shootm/Shootm.swf
Shoot n Catch	ok	quick	http://www.freeworldgroup.com/games8/shootncatch/shootncatch.swf
Shopaholic Models	ok	quick	http://www8.agame.com/games/flash/s/shopaholic_models/shopaholic_models.swf
Shopping Cart Hero	ok	quick	http://www.freeworldgroup.com/games8/shoppingcarthero/shoppingcarthero.swf
Shrink 2	ok	quick	http://www.freeworldgroup.com/games8/shrink2/shrink2.swf
Simple Love	ok	quick	http://www.freeworldgroup.com/games9/simplelove/simple-love.swf
Simple Square	skip	quick	10
Siris	ok	quick	http://www.freeworldgroup.com/games8/siris/Siris.swf
Sittin' at the Bar	ok	quick	http://www.freeworldgroup.com/games8/sitinatthebar/sitt%27natthebar.swf
Skater  Dog	ok	quick	http://www.freeworldgroup.com/games3/frisbeedog_web/frisbeedog.swf
Skill Roll	ok	quick	http://www.freeworldgroup.com/games6/skillroll/skillroll.swf
Skill Test	ok	quick	http://www.freeworldgroup.com/games8/skilltest/skilltest.swf
Skill Test 2	ok	quick	http://www.freeworldgroup.com/games9/skilltest2/skilltest2.swf
Skincraft	ok	quick	http://www.freeworldgroup.com/games9/skincraft/skincraft.swf
Skipping Panda	skip	quick	10
Sky Dive	ok	quick	http://www.freeworldgroup.com/games6/skydive/sky.swf
Sky Jump	ok	quick	http://www.freeworldgroup.com/games8/larrybigdipper/larrybigdipper.swf
Sky Machine	ok	quick	http://www.freeworldgroup.com/games8/skymachine/skymachine.swf
Skyrace	skip	quick	10
Slap the Nerd	ok	quick	http://www.freeworldgroup.com/games6/slapthenerd/slapthenerd.swf
Sled Shredding	ok	quick	http://www.freeworldgroup.com/games8/sledshredding/sledshredding.swf
Slimey's Quest	skip	quick	10
Sling Jumper 2	ok	quick	http://www.freeworldgroup.com/games8/slingjumper2/slingjumper2.swf
Slug Smash	ok	quick	http://www.freeworldgroup.com/games5/slugsmash/smash.swf
Smiley Jump Mania	ok	quick	http://www.freeworldgroup.com/games9/smileyjumpmania/smiley_jump_mania.swf
Smiley Showdown	ok	quick	http://www.freeworldgroup.com/games9/smileyshowdown/SmileyShowdown.swf
Smokin Barrels	ok	quick	http://www.freeworldgroup.com/games6/smokinbarrels/410537_smokin_barrels.swf
Smokin' Barrels 2	skip	quick	10
Snake.is MLG	skip	quick	10
Snakeland	skip	quick	10
Snake the Game	skip	quick	10
Sneaky Texting	ok	quick	http://www.freeworldgroup.com/games8/sneakytexting/sneaky.swf
Snitch	ok	quick	http://www.freeworldgroup.com/games6/snitch/snitch_13.swf
Snowboarder XS	ok	quick	http://www.freeworldgroup.com/games/snowboardingxs/snowboardingxs.dcr
Snowman Maker	ok	quick	http://www.freeworldgroup.com/games9/snowmanmaker/Snowman_FWG.swf
Snow Tree	ok	quick	http://www.freeworldgroup.com/games9/snowtree/snowtree.swf
Soldiers Diary	ok	quick	http://www.freeworldgroup.com/games9/soldierdiary/soldier_diary_freeworldgroup.swf
Sonic Tetris	fail	quick	5
Sorb	ok	quick	http://www.freeworldgroup.com/games8/sorb/sorb.swf
Sorter Bob	ok	quick	http://www.freeworldgroup.com/games8/sorterbob/sorterbob.swf
Soul Job	skip	quick	10
South Beach Parking	ok	quick	http://www.freeworldgroup.com/games8/southbeachparking/southbeachparking.swf
Spa Care	ok	quick	http://www.freeworldgroup.com/games9/spacare/spacare.swf
SpaceBox	skip	quick	10
Space Flight	ok	quick	http://www.freeworldgroup.com/games5/space_flight/space_flight.swf
Space is Key	ok	quick	http://www.freeworldgroup.com/games9/spaceiskey/spaceiskey.swf
Space is Key Hell	skip	quick	10
Space is Key Xmas	skip	quick	10
Spaceman 2023	skip	quick	10
Spaceman vs Monters	ok	quick	http://www.freeworldgroup.com/games9/spacemanvsmonsters/spacemanvsmonster.swf
Spaceman vs Zombies	ok	quick	http://www.freeworldgroup.com/games9/spacemanvszombies/goopygames.swf
Sparks	fail	quick	6
Speed Runner	ok	quick	http://www.freeworldgroup.com/games9/speedrunner/SpeedRunner.swf
Speed Typing	ok	quick	http://www.freeworldgroup.com/games8/speedtyping/speedtyping.swf
Spell Idle 2	skip	quick	10
Spiders Bride	ok	quick	http://www.freeworldgroup.com/games8/spidersbride/spidersbride.swf
Spike - A Love Story	ok	quick	http://www.freeworldgroup.com/games9/spikealovestory/spikealovestory.swf
Spike a Love Story Too	ok	quick	http://www.freeworldgroup.com/games9/spikealovestorytoo/spikealovestorytoo.swf
SpikeBird	skip	quick	10
Spin Game	ok	quick	http://www.freeworldgroup.com/games9/spingame/spin.swf
Spinmatch 2	ok	quick	http://www.freeworldgroup.com/games8/spinmatch2/SpinMatch2.swf
Spin the Black Circle	ok	quick	http://www.freeworldgroup.com/games6/spintheblackcircle/spin-the-black-circle.swf
Spitter	skip	quick	10
Spot the Dot 2	ok	quick	http://www.freeworldgroup.com/games8/spotthedot2/spotthedot2.swf
Sprintster	ok	quick	http://www.freeworldgroup.com/games6/sprintster/SPRINSTER.swf
Sproing	ok	quick	http://www.freeworldgroup.com/games6/sproing/sproing.swf
Square Crush	skip	quick	10
Squaresnare	ok	quick	http://www.freeworldgroup.com/games8/squaresnare/squaresnare.swf
Square Survival Guide	ok	quick	http://www.freeworldgroup.com/games9/squaresurvivalguide/squaresurvivalguide.swf
Squeeze	ok	quick	http://www.freeworldgroup.com/games8/squeeze/squeeze.swf
Squidy 2	ok	quick	http://www.freeworldgroup.com/games9/squidy2/squidy2.swf
Squirrel Harvest	ok	quick	http://www.freeworldgroup.com/games6/squirrel-harvest/squirrel-harvest.swf
Stack Da Police	ok	quick	http://www.freeworldgroup.com/games8/stackdapolice/stackdapolice.swf
Stackle	ok	quick	http://www.freeworldgroup.com/games8/stackle/stackle.swf
Stack Tower Classic	skip	quick	10
Stair Fall	ok	quick	http://www.freeworldgroup.com/games6/stair-fall/stair-fall.swf
Stair Fall 2	ok	quick	http://www.freeworldgroup.com/games6/stairfall2/stairfall2.swf
Star Bash	ok	quick	http://www.freeworldgroup.com/games3/starbash/starbash.swf
Starbox	ok	quick	http://www.freeworldgroup.com/games8/starbox/starbox.swf
Starman	ok	quick	http://www.freeworldgroup.com/games9/starman/starman.swf
Star Stalker	ok	quick	http://www.freeworldgroup.com/games8/starstalker/starstalker.swf
Start the Leak	ok	quick	http://www.freeworldgroup.com/games9/starttheleak/start-the-leak-fwg.swf
Steel Jack Level Pack	skip	quick	10
Stellar Hunter	ok	quick	http://www.freeworldgroup.com/games9/stellarhunter/stellarhunter.swf
Stellar Hunter 2	ok	quick	http://www.freeworldgroup.com/games9/stellerhunter/stellerhunter.swf
Stick Blender	ok	quick	http://www.addictinggames.com/newGames/funny-games/stickblender/stickblender.swf
Stick Figure Test Facility	skip	quick	10
Stickicide 3	ok	quick	http://www.freeworldgroup.com/games8/stickicide3/stickicide3.swf
Stick Mini Games	ok	quick	http://www.freeworldgroup.com/games8/stickminigames/stickminigames.swf
Stick Samurai	skip	quick	10
Stone Breaker	ok	quick	http://www.freeworldgroup.com/games2/stonebreaker/stonebreaker.swf
Stonepunk	ok	quick	http://www.freeworldgroup.com/games8/stonepunk/stonepunk.swf
Storm Saws	skip	quick	10
Str1ngle	skip	quick	10
Street Fever City Adventure	skip	quick	10
String Avoider	ok	quick	http://www.freeworldgroup.com/games4/string/string.swf
String Avoider Deluxe	ok	quick	http://www.freeworldgroup.com/games5/stringavoider/343739_String_Avoider.swf
Sub bump	ok	quick	http://downloads.kewlbox.com/partners/freeworld/subbump.swf
Suicide Guy	ok	quick	http://www.fwgforum.com/games/suicideguy/suicideguy.unity3d
Sunny Shine	ok	quick	http://www.freeworldgroup.com/games6/sunnyshine/sunny.swf
Sunshine	ok	quick	http://www.freeworldgroup.com/games9/sunshine/sunshine.swf
Super Briefcase	ok	quick	http://www.freeworldgroup.com/games8/superbriefcase/superbriefcase.swf
Super Idle Master	skip	quick	10
Super Fall Go Go	ok	quick	http://www.freeworldgroup.com/games8/superfallgogo/superfallgogo.swf
Super Hero Creator	ok	quick	http://www.freeworldgroup.com/games9/superherocreator/superherocreator.swf
SuperHero in 60 Seconds	ok	quick	http://www.freeworldgroup.com/games9/superheroin60seconds/superheroin60seconds.swf
Super Idiot Tetris	ok	quick	http://www.freeworldgroup.com/games5/superidiottetis/339067_tetris_v2.swf
Super Kataro Kun	ok	quick	http://www.addictinggames.com/newGames/action-games/superkotarokun/superkotarokun.swf
Super Lava Jumper	ok	quick	http://www.freeworldgroup.com/games8/superlavajumper/superlavajumper.swf
Super Santa Speed Splat	ok	quick	http://www.freeworldgroup.com/games8/supersantaspeedsplat/supersantaspeedsplat.swf
Super Sneak	skip	quick	10
Super Sports Surgery Basketball	skip	quick	10
Super Sports Surgery Rugby	skip	quick	10
Super Stacker	ok	quick	http://www.freeworldgroup.com/games8/superstacker/SuperStacker600x550.swf
Super Stacker 2	ok	quick	http://www.freeworldgroup.com/games8/superstacker2/superstacker2.swf
Superstars	ok	quick	http://www.freeworldgroup.com/games6/chiodossuperstars/superstars_ngs.swf
Super Titagon	skip	quick	10
Surgeon Simulator 2013	fail	quick	0
Surplus Soldiers	ok	quick	http://www.freeworldgroup.com/games9/surplussoldiers/surplussoldieers.swf
Sushi Cat 2	ok	quick	http://www.freeworldgroup.com/games9/sushicat2/sushicat2.swf
Sushi Catapult	skip	quick	10
SWAT Tank	ok	quick	http://www.freeworldgroup.com/games9/swattank/swattank.swf
Sweet Drmzzz	skip	quick	10
Swift Cats	skip	quick	10
Swing Robber	skip	quick	10
Swim Ish Swim	skip	quick	10
Swipe Game	skip	quick	10
Swoopa	ok	quick	http://www.freeworldgroup.com/games5/swoopa/swoopa_fwg.swf
Swords n Words	ok	quick	http://www.freeworldgroup.com/games8/swordsnwords/swordsnwords.swf
Sydney Shark	ok	quick	http://www.freeworldgroup.com/games8/sydneyshark/sydneyshark.swf
Tabuto	ok	quick	http://www.freeworldgroup.com/games6/tabuto/tabuto.swf
Tadpole	ok	quick	http://www.freeworldgroup.com/games9/tadpole/tadpole.swf
Take it Down	ok	quick	http://www.freeworldgroup.com/games8/takeitdown/takeitdown.swf
Tamatipico	ok	quick	http://www.freeworldgroup.com/games5/tamatipico/tamatipico-eng.swf
Tanks	fail	quick	1
Tangerine Panic	ok	quick	http://www.freeworldgroup.com/games6/tangerinepanic/tangerinepanic.swf
Tap Tap 2	ok	quick	http://www.freeworldgroup.com/games8/taptap2/taptap2.swf
Tarzanball	ok	quick	http://www.freeworldgroup.com/games9/tarzanball/tarzanball.swf
Tax Time	ok	quick	http://www.freeworldgroup.com/games8/taxtime/taxtime.swf
Tested on Animals 2	ok	quick	http://www.freeworldgroup.com/games6/testedonanimals2/testedonanimals2.swf
Tetris	ok	quick	http://www.freeworldgroup.com/games/tetrisflash/Tetriswm.swf
Tetris Snake	ok	quick	http://www.freeworldgroup.com/games8/tetrissnake/tetrisnake.swf
The armchair games	ok	quick	http://www.freeworldgroup.com/games/armchair/game.swf
The Bester Game Ever Made	ok	quick	http://www.freeworldgroup.com/games9/thebestergameevermade/thebestergameevermade.swf
The Bull Rage	ok	quick	http://www.freeworldgroup.com/games6/thebullrage/thebullrage.swf
The Chaos Reactor	ok	quick	http://www.freeworldgroup.com/games9/thechaosreactor/thechaosreactor.swf
The Circless	ok	quick	http://www.freeworldgroup.com/games6/thecircles/thecircles.swf
The Circular Blot	ok	quick	http://www.freeworldgroup.com/games8/thecircularblot2/thecircularblot2.swf
The Clock and the Chaos	skip	quick	10
The Elk's Revenge	ok	quick	http://www.freeworldgroup.com/games6/theelksrevenge/elksRevengeContest[1].swf
Therrain	skip	quick	10
The Evils	ok	quick	http://www.freeworldgroup.com/games6/theevils/theevils.swf
The Factory	ok	quick	http://www.freeworldgroup.com/games8/thefactory/thefactory.swf
The Flood Runner	ok	quick	http://www.freeworldgroup.com/games8/thefloodrunner/thefloodrunner.swf
The Great Bazooki	skip	quick	10
The Impossible Game	ok	quick	http://www.freeworldgroup.com/games9/theimpossiblegame2/theimpossiblegame2.swf
The Insanity Box 2	ok	quick	http://www.freeworldgroup.com/games9/theinsanitybox2/theinsanitybox2.swf
The Kitten Game	ok	quick	http://www.freeworldgroup.com/games8/thekittengame/thekittengame.swf
The Line Game	ok	quick	http://www.freeworldgroup.com/games8/thelinegame/LineGame.swf
The Line Up	skip	quick	10
The Loss Levels	skip	quick	10
The Platform	skip	quick	10
The Power of Love	skip	quick	10
Theremin	skip	quick	10
The Return	ok	quick	http://www.freeworldgroup.com/games6/the-return/the_return.swf
The Sandbox	ok	quick	http://www.freeworldgroup.com/games9/thesandbox/thesandbox.swf
The Sorcerer	skip	quick	10
The Sweet Menace	skip	quick	10
The Tartman	skip	quick	10
The Time Waster	ok	quick	http://www.freeworldgroup.com/games8/thetimewaster/thetimewaster.swf
The Zombie Show	skip	quick	10
Through Game	skip	quick	10
Throw Me	ok	quick	http://www.freeworldgroup.com/games6/throwme/throw-me.swf
Tiger Moth	ok	quick	http://www.freeworldgroup.com/games3/tigermoth_web/moth.swf
Tightrope Theatre	skip	quick	10
Timmy	skip	quick	10
Tilt 3	ok	quick	http://www.freeworldgroup.com/games8/tilt3/tilt3as3.swf
Tiny Trials	ok	quick	http://www.freeworldgroup.com/games8/tinytrials/tinytrials.swf
Toastache	ok	quick	http://www.freeworldgroup.com/games9/toastache/Toastache.swf
Toastache Xmas	ok	quick	http://www.freeworldgroup.com/games9/toastachexmas/toastachexmas.swf
Toilet Success	skip	quick	10
Tommy Slingshot	ok	quick	http://www.freeworldgroup.com/games9/tommyslingshot/tommyslingshot.swf
Tornado Mania	ok	quick	http://www.freeworldgroup.com/games8/tornadomania/tornadomania.swf
Tornado Smashing Button	ok	quick	http://www.freeworldgroup.com/games6/tornadosmashingbutton/tornadosmashingbutton.swf
Torture Chamber	ok	quick	http://www.freeworldgroup.com/games6/torturechamber/torturechamber.swf
Torturomatic	ok	quick	http://www.freeworldgroup.com/games8/torturomatic/tortur-o-matic.swf
Tortur-o-matic 2	ok	quick	http://www.freeworldgroup.com/games8/torturomatic2/torturomatic2.swf
Totem Jump	ok	quick	http://www.freeworldgroup.com/games9/totemjump/totemjump.swf
Touch the Bubbles 3	ok	quick	http://www.freeworldgroup.com/games8/touchthebubbles3/ttbb3.swf
Touch the Core 3	skip	quick	10
Tourist Paradise	ok	quick	http://www.freeworldgroup.com/games9/touristparadise/tourist-paradise.swf
Tower Bloxx	ok	quick	http://www.freeworldgroup.com/games6/tower-blox/towerbloxx.swf
Tower Defense RPG	ok	quick	http://www.freeworldgroup.com/games6/towerdefenserpg/towerdefenserpg.swf
Tower of Blocks	ok	quick	http://www8.agame.com/mirror/flash/t/TowerofBlocks/Tower_of_Blocks_gamesgames_com.swf
Toy Crafter	ok	quick	http://www.fwgforum.com/toycrafter/toycrafter.unity3d
Tracism	ok	quick	http://flashcdn.iminlikewithyou.com/embedder.swf?key=33b4d92016180169b878bf6383cd2a5085e0b2154741c99c1d98e32864ea5bae18daa08366adf14751189dff4ab0626b1d34
Traffic Light Madness	skip	quick	10
Trajectory	ok	quick	http://www.freeworldgroup.com/games9/trajectory/trajectory.swf
Transport Game	skip	quick	10
Trap Volume 1	ok	quick	http://www.freeworldgroup.com/games9/trapvolume1/trapvolume1.swf
Trial and Terror	skip	quick	10
Tricharge	ok	quick	http://www.freeworldgroup.com/games8/tricharge/tri.swf
Trickochet	ok	quick	http://www.freeworldgroup.com/games8/trickochet/Trickochet.swf
Trick or Treat	ok	quick	http://www.freeworldgroup.com/games6/trickortreat2/trickortreat.swf
Tricky Little Lander	skip	quick	10
Trollface Launch 2	ok	quick	http://www.freeworldgroup.com/games9/trollfacelaunch2/trollfacelaunch2.swf
Trollface Quest 4	skip	quick	10
TRON	ok	quick	http://www.freeworldgroup.com/games9/tron/tron.swf
Trouble in Space	skip	quick	10
TU-46	skip	quick	10
Turbocharged Penguins	ok	quick	http://www.freeworldgroup.com/games6/turbochargedpenguins/turbocharged.swf
Turbo Dismount	skip	quick	10
Turbo Kids	fail	quick	0
TurboSanta	ok	quick	http://www.freeworldgroup.com/games9/turbosanta/turbosanta.swf
Turkey Fling	ok	quick	http://www.freeworldgroup.com/games9/turkeyfling/turkeyfling1.swf
Turkey Hunter 2	ok	quick	http://www.freeworldgroup.com/games9/turkeyhunter2/turkeyhunter2.swf
Turtle Run	ok	quick	http://www.freeworldgroup.com/games9/turtlerun/turtlerun.swf
Twice as Bounce	ok	quick	http://www.freeworldgroup.com/games8/twiceasbounce/twiceasbounce.swf
Twilight Coloring	ok	quick	http://www.freeworldgroup.com/games8/twilightcoloring/wambietwilightcoloring.swf
Twilight Triangle	ok	quick	http://www8.agame.com/mirror/flash/t/Twilight_triangle/twilight_triangle.swf
UFO Game	skip	quick	10
Ultimate Beaky	ok	quick	http://www.freeworldgroup.com/games9/ultimate-beaky/Ultimate-Beaky.swf
Ultimate Doodle Man	ok	quick	http://www.freeworldgroup.com/games9/ultimatedoodleman/Ultimate-Doodle-Man.swf
Ultimate Game Challenge	ok	quick	http://www.freeworldgroup.com/games8/ultimategamechallenge/ultimategamerchallenge.swf
Ultra Hyper	skip	quick	10
Undead Survival Test	ok	quick	http://www.addictinggames.com/newGames/puzzle-games/undeadsurvivaltest/undeadsurvivaltest.swf
Under the Star Night	ok	quick	http://www.freeworldgroup.com/games9/underthestarnight/UnderTheStarNight.swf
Up Down Ready	ok	quick	http://www.freeworldgroup.com/games9/updownready/UPDOWNREADY.swf
Up in the Sky	skip	quick	10
Utmost	ok	quick	http://www.freeworldgroup.com/games9/utmost/utmost.swf
Vaioware	ok	quick	http://swarm.killerviral.com/vaioware/game.swf
Van	ok	quick	http://www.freeworldgroup.com/games4/van/van.swf
Van Jellies	ok	quick	http://www.freeworldgroup.com/games5/jellies/jellies.swf
Vase Breaker	ok	quick	http://www.freeworldgroup.com/games8/vasebreaker/vasebreaker.swf
Vase Breaker 2	ok	quick	http://www.freeworldgroup.com/games8/vasebreaker2/vase-breaker2.swf
Vectagon	skip	quick	10
Vector Runner Remix	fail	quick	0
Vehicles Level Pack	ok	quick	http://i.notdoppler.com/files/vehicleslevelpack.swf
Victory or Death	ok	quick	http://www.freeworldgroup.com/games9/victoryordeath/vict.swf
Vinyl Memories	skip	quick	10
Vinyl Memories 2	skip	quick	10
Volair	ok	quick	http://www.freeworldgroup.com/games8/volair/volair.swf
Warfare Transporter	ok	quick	http://www.freeworldgroup.com/games8/warfaretransporter/warfaretransporter.swf
We Are Robots 2	ok	quick	http://www.freeworldgroup.com/games9/wearerobots2/wearerobots2.swf
William the Conqueror	skip	quick	10
Whack Your Boss	skip	quick	10
Wheel of Misfortune	ok	quick	http://www.freeworldgroup.com/games8/wheelofmisfortune/wheelofmisfortune.swf
Where is Cat	skip	quick	10
Where's Derpy	ok	quick	http://www.freeworldgroup.com/games9/wheresderpy/wheresderpy.swf
Wizard Launcher	ok	quick	http://www.freeworldgroup.com/games9/wizardlauncher/wizardlauncher.swf
Wonder Rocket	ok	quick	http://www.freeworldgroup.com/games9/wonderrocket/wonderrocket.swf
Word Mountain	ok	quick	http://www.freeworldgroup.com/games8/wordmountain/wordmountain.swf
WorldBox	ok	quick	http://www.freeworldgroup.com/games9/worldbox/worldbox.swf
World Defense	ok	quick	http://www.freeworldgroup.com/games5/meteor/meteorgame.swf
World of Colors	skip	quick	10
Worm	ok	quick	http://www.freeworldgroup.com/games2/worm/269582_worm_fwg.swf
Wrath	ok	quick	http://www.freeworldgroup.com/games/wrath/wrath.swf
Xonix 3D	ok	quick	http://www.freeworldgroup.com/games9/xonix3d/xonix-3d.swf
Xonix 3D 2	skip	quick	10
Yeti sports	fail	quick	1
Yeti sports 2	fail	quick	1
You're Toast	ok	quick	http://www.addictinggames.com/newGames/action-games/youretoast/youretoast.swf
You're Toast 3: Prehistoric	ok	quick	
Yummy Yummy Monster Shooter	ok	quick	
Zippy Fish	ok	quick	http://www.freeworldgroup.com/games9/zippyfishlauncher/ZippyFishRedistLauncher.swf
Zoi: The Escape	skip	quick	10
Zombidle	skip	quick	10
Zombie Demolisher	skip	quick	10
Zombie Goes Up	skip	quick	10
Zombie Shooter	ok	quick	http://www.freeworldgroup.com/games9/zombieshooter/zombieshooter.swf
Zombies vs Penguins 3	skip	quick	10
Zomboz 2	ok	quick	http://www.pegasgames.com/games/Zomboz2.swf
Zrist	skip	quick	10
Zuck Launcher	ok	quick	http://www.freeworldgroup.com/games9/zucklauncher/zucklauncher.swf
Zuzu the Elf	skip	quick	10
Zyl 2	skip	quick	10
